{"rows":[
{"key":"boundary_conditions","value":2},
{"key":"engineering_cost","value":1},
{"key":"failed_input","value":1},
{"key":"geometry","value":2},
{"key":"job","value":1},
{"key":"meta","value":1},
{"key":"reinforcements","value":1},
{"key":"road_network","value":1},
{"key":"soils","value":2},
{"key":"stability","value":1},
{"key":"task","value":1},
{"key":"vegetation","value":1}
]}