{"total_rows":4,"offset":0,"rows":[
{"id":"state_done","key":"job1","value":null},
{"id":"state_submitted","key":"job2","value":null},
{"id":"state_ready_to_submit","key":"job3","value":null},
{"id":"state_splitting","key":"job4","value":null}
]}