{
    "_id": "task3_failed",
    "type": "job",
    "task_id": "task3",
    "task_name": "Task 3",
    "state": "failed",
    "input_files": {
        "initial_slope": "geometry_file_2",
        "geometry": "ignore_me"
    }
}