{
    "_id": "chasm_1.2.3",
    "type": "release",
    "software": "Chasm",
    "version": "1.2.3",
    "release_manager": "Amanda Hugankiss",
    "date": "1970-01-01",
    "description": "Initial production release",
    "for_production": true
}