{"rows":[
{"key":["geometry","example_slope_metadata"],"value":4},
{"key":["job","dummytask"],"value":1},
{"key":["reinforcements","geometry_questa_soil_known"],"value":3},
{"key":["results","dummytask"],"value":1},
{"key":["results","task_definition_dummyuid"],"value":1},
{"key":["stability","geometry_questa_soil_approximated"],"value":1},
{"key":["stability","geometry_questa_soil_known"],"value":2},
{"key":["vegetation","geometry_questa_soil_approximated"],"value":2},
{"key":["vegetation","geometry_questa_soil_known"],"value":6}
]}