{
    "type": "task",
    "requestor": "Joe Bloggs",
    "group": "Geography",
    "random_seed": 1234,
    "executable": {
        "application": "questa",
        "version": "4.5.6"
    },
    "input_files": {
        "geometry": "geometry_questa_soil_approximated",
        "soils": "soils_deterministic",
        "stability": "stability_bishop",
        "boundary_conditions": "boundary_conditions_deterministic",
        "engineering_cost": "engineering_cost",
        "road_network": "road_network"
    },
    "output_variables": {
        "factor_of_safety": true,
        "pressure_head": true,
        "soil_moisture_content": false,
        "total_soil_moisture": false,
        "vegetation_interception": false
    },
    "duration": {
        "unit": "h",
        "value": 360
    },
    "time_step": {
        "unit": "s",
        "value": 60
    },
    "report_filename": "output_summary",
    "realistic_rainfall": false
}