{"total_rows":722,"offset":0,"rows":[
{"id":"results","key":["dummytask","questa_dummy_job",0],"value":{"x":40.1242,"y":41.1413,"r":31.5}},
{"id":"results","key":["dummytask","questa_dummy_job",1],"value":{"x":40.1242,"y":41.1413,"r":31.5}},
{"id":"results","key":["dummytask","questa_dummy_job",2],"value":{"x":40.1242,"y":41.1413,"r":31.5}},
{"id":"results","key":["dummytask","questa_dummy_job",3],"value":{"x":40.1242,"y":41.1413,"r":31.5}},
{"id":"results","key":["dummytask","questa_dummy_job",4],"value":{"x":40.1242,"y":41.1413,"r":31.5}},
{"id":"results","key":["dummytask","questa_dummy_job",5],"value":{"x":40.1242,"y":41.1413,"r":31.5}},
{"id":"results","key":["dummytask","questa_dummy_job",6],"value":{"x":40.1242,"y":41.1413,"r":31.5}},
{"id":"results","key":["dummytask","questa_dummy_job",7],"value":{"x":40.1242,"y":41.1413,"r":31.5}},
{"id":"results","key":["dummytask","questa_dummy_job",8],"value":{"x":40.1242,"y":41.1413,"r":31.5}},
{"id":"results","key":["dummytask","questa_dummy_job",9],"value":{"x":40.1242,"y":41.1413,"r":31.5}},
{"id":"results","key":["dummytask","questa_dummy_job",10],"value":{"x":40.1242,"y":41.1413,"r":31.5}},
{"id":"results","key":["dummytask","questa_dummy_job",11],"value":{"x":40.1242,"y":41.1413,"r":31.5}},
{"id":"results","key":["dummytask","questa_dummy_job",12],"value":{"x":40.1242,"y":41.1413,"r":31.5}},
{"id":"results","key":["dummytask","questa_dummy_job",13],"value":{"x":40.1242,"y":41.1413,"r":31.5}},
{"id":"results","key":["dummytask","questa_dummy_job",14],"value":{"x":40.1242,"y":41.1413,"r":31.5}},
{"id":"results","key":["dummytask","questa_dummy_job",15],"value":{"x":40.1242,"y":41.1413,"r":31.5}},
{"id":"results","key":["dummytask","questa_dummy_job",16],"value":{"x":40.1242,"y":41.1413,"r":31.5}},
{"id":"results","key":["dummytask","questa_dummy_job",17],"value":{"x":40.1242,"y":41.1413,"r":31.5}},
{"id":"results","key":["dummytask","questa_dummy_job",18],"value":{"x":40.1242,"y":41.1413,"r":31.5}},
{"id":"results","key":["dummytask","questa_dummy_job",19],"value":{"x":40.1242,"y":41.1413,"r":31.5}},
{"id":"results","key":["dummytask","questa_dummy_job",20],"value":{"x":40.1242,"y":41.1413,"r":31.5}},
{"id":"results","key":["dummytask","questa_dummy_job",21],"value":{"x":40.1242,"y":41.1413,"r":31.5}},
{"id":"results","key":["dummytask","questa_dummy_job",22],"value":{"x":40.1242,"y":41.1413,"r":31.5}},
{"id":"results","key":["dummytask","questa_dummy_job",23],"value":{"x":40.1242,"y":41.1413,"r":31.5}},
{"id":"results","key":["dummytask","questa_dummy_job",24],"value":{"x":40.1242,"y":41.1413,"r":31.5}},
{"id":"results","key":["dummytask","questa_dummy_job",25],"value":{"x":40.1242,"y":41.1413,"r":31.5}},
{"id":"results","key":["dummytask","questa_dummy_job",26],"value":{"x":40.1242,"y":41.1413,"r":31.5}},
{"id":"results","key":["dummytask","questa_dummy_job",27],"value":{"x":40.1242,"y":41.1413,"r":31.5}},
{"id":"results","key":["dummytask","questa_dummy_job",28],"value":{"x":40.1242,"y":41.1413,"r":31.5}},
{"id":"results","key":["dummytask","questa_dummy_job",29],"value":{"x":40.1242,"y":41.1413,"r":31.5}},
{"id":"results","key":["dummytask","questa_dummy_job",30],"value":{"x":40.1242,"y":41.1413,"r":31.5}},
{"id":"results","key":["dummytask","questa_dummy_job",31],"value":{"x":40.1242,"y":41.1413,"r":31.5}},
{"id":"results","key":["dummytask","questa_dummy_job",32],"value":{"x":40.1242,"y":41.1413,"r":31.5}},
{"id":"results","key":["dummytask","questa_dummy_job",33],"value":{"x":40.1242,"y":41.1413,"r":31.5}},
{"id":"results","key":["dummytask","questa_dummy_job",34],"value":{"x":40.1242,"y":41.1413,"r":31.5}},
{"id":"results","key":["dummytask","questa_dummy_job",35],"value":{"x":40.1242,"y":41.1413,"r":31.5}},
{"id":"results","key":["dummytask","questa_dummy_job",36],"value":{"x":40.1242,"y":41.1413,"r":31.5}},
{"id":"results","key":["dummytask","questa_dummy_job",37],"value":{"x":40.1242,"y":41.1413,"r":31.5}},
{"id":"results","key":["dummytask","questa_dummy_job",38],"value":{"x":40.1242,"y":41.1413,"r":31.5}},
{"id":"results","key":["dummytask","questa_dummy_job",39],"value":{"x":40.1242,"y":41.1413,"r":31.5}},
{"id":"results","key":["dummytask","questa_dummy_job",40],"value":{"x":40.1242,"y":41.1413,"r":31.5}},
{"id":"results","key":["dummytask","questa_dummy_job",41],"value":{"x":40.1242,"y":41.1413,"r":31.5}},
{"id":"results","key":["dummytask","questa_dummy_job",42],"value":{"x":40.1242,"y":41.1413,"r":31.5}},
{"id":"results","key":["dummytask","questa_dummy_job",43],"value":{"x":40.1242,"y":41.1413,"r":31.5}},
{"id":"results","key":["dummytask","questa_dummy_job",44],"value":{"x":40.1242,"y":41.1413,"r":31.5}},
{"id":"results","key":["dummytask","questa_dummy_job",45],"value":{"x":40.1242,"y":41.1413,"r":31.5}},
{"id":"results","key":["dummytask","questa_dummy_job",46],"value":{"x":40.1242,"y":41.1413,"r":31.5}},
{"id":"results","key":["dummytask","questa_dummy_job",47],"value":{"x":40.1242,"y":41.1413,"r":31.5}},
{"id":"results","key":["dummytask","questa_dummy_job",48],"value":{"x":40.1242,"y":41.1413,"r":31.5}},
{"id":"results","key":["dummytask","questa_dummy_job",49],"value":{"x":40.1242,"y":41.1413,"r":31.5}},
{"id":"results","key":["dummytask","questa_dummy_job",50],"value":{"x":40.1242,"y":41.1413,"r":31.5}},
{"id":"results","key":["dummytask","questa_dummy_job",51],"value":{"x":40.1242,"y":41.1413,"r":31.5}},
{"id":"results","key":["dummytask","questa_dummy_job",52],"value":{"x":40.1242,"y":41.1413,"r":31.5}},
{"id":"results","key":["dummytask","questa_dummy_job",53],"value":{"x":40.1242,"y":41.1413,"r":31.5}},
{"id":"results","key":["dummytask","questa_dummy_job",54],"value":{"x":40.1242,"y":41.1413,"r":31.5}},
{"id":"results","key":["dummytask","questa_dummy_job",55],"value":{"x":40.1242,"y":41.1413,"r":31.5}},
{"id":"results","key":["dummytask","questa_dummy_job",56],"value":{"x":40.1242,"y":41.1413,"r":31.5}},
{"id":"results","key":["dummytask","questa_dummy_job",57],"value":{"x":40.1242,"y":41.1413,"r":31.5}},
{"id":"results","key":["dummytask","questa_dummy_job",58],"value":{"x":40.1242,"y":41.1413,"r":31.5}},
{"id":"results","key":["dummytask","questa_dummy_job",59],"value":{"x":40.1242,"y":41.1413,"r":31.5}},
{"id":"results","key":["dummytask","questa_dummy_job",60],"value":{"x":40.1242,"y":41.1413,"r":31.5}},
{"id":"results","key":["dummytask","questa_dummy_job",61],"value":{"x":40.1242,"y":41.1413,"r":31.5}},
{"id":"results","key":["dummytask","questa_dummy_job",62],"value":{"x":40.1242,"y":41.1413,"r":31.5}},
{"id":"results","key":["dummytask","questa_dummy_job",63],"value":{"x":40.1242,"y":41.1413,"r":31.5}},
{"id":"results","key":["dummytask","questa_dummy_job",64],"value":{"x":40.1242,"y":41.1413,"r":31.5}},
{"id":"results","key":["dummytask","questa_dummy_job",65],"value":{"x":40.1242,"y":41.1413,"r":31.5}},
{"id":"results","key":["dummytask","questa_dummy_job",66],"value":{"x":40.1242,"y":41.1413,"r":31.5}},
{"id":"results","key":["dummytask","questa_dummy_job",67],"value":{"x":40.1242,"y":41.1413,"r":31.5}},
{"id":"results","key":["dummytask","questa_dummy_job",68],"value":{"x":40.1242,"y":41.1413,"r":31.5}},
{"id":"results","key":["dummytask","questa_dummy_job",69],"value":{"x":40.1242,"y":41.1413,"r":31.5}},
{"id":"results","key":["dummytask","questa_dummy_job",70],"value":{"x":40.1242,"y":41.1413,"r":31.5}},
{"id":"results","key":["dummytask","questa_dummy_job",71],"value":{"x":40.1242,"y":41.1413,"r":31.5}},
{"id":"results","key":["dummytask","questa_dummy_job",72],"value":{"x":40.1242,"y":41.1413,"r":31.5}},
{"id":"results","key":["dummytask","questa_dummy_job",73],"value":{"x":40.1242,"y":41.1413,"r":31.5}},
{"id":"results","key":["dummytask","questa_dummy_job",74],"value":{"x":40.1242,"y":41.1413,"r":31.5}},
{"id":"results","key":["dummytask","questa_dummy_job",75],"value":{"x":40.1242,"y":41.1413,"r":31.5}},
{"id":"results","key":["dummytask","questa_dummy_job",76],"value":{"x":40.1242,"y":41.1413,"r":31.5}},
{"id":"results","key":["dummytask","questa_dummy_job",77],"value":{"x":40.1242,"y":41.1413,"r":31.5}},
{"id":"results","key":["dummytask","questa_dummy_job",78],"value":{"x":40.1242,"y":41.1413,"r":31.5}},
{"id":"results","key":["dummytask","questa_dummy_job",79],"value":{"x":40.1242,"y":41.1413,"r":31.5}},
{"id":"results","key":["dummytask","questa_dummy_job",80],"value":{"x":40.1242,"y":41.1413,"r":31.5}},
{"id":"results","key":["dummytask","questa_dummy_job",81],"value":{"x":40.1242,"y":41.1413,"r":31.5}},
{"id":"results","key":["dummytask","questa_dummy_job",82],"value":{"x":40.1242,"y":41.1413,"r":31.5}},
{"id":"results","key":["dummytask","questa_dummy_job",83],"value":{"x":40.1242,"y":41.1413,"r":31.5}},
{"id":"results","key":["dummytask","questa_dummy_job",84],"value":{"x":40.1242,"y":41.1413,"r":31.5}},
{"id":"results","key":["dummytask","questa_dummy_job",85],"value":{"x":40.1242,"y":41.1413,"r":31.5}},
{"id":"results","key":["dummytask","questa_dummy_job",86],"value":{"x":40.1242,"y":41.1413,"r":31.5}},
{"id":"results","key":["dummytask","questa_dummy_job",87],"value":{"x":40.1242,"y":41.1413,"r":31.5}},
{"id":"results","key":["dummytask","questa_dummy_job",88],"value":{"x":40.1242,"y":41.1413,"r":31.5}},
{"id":"results","key":["dummytask","questa_dummy_job",89],"value":{"x":40.1242,"y":41.1413,"r":31.5}},
{"id":"results","key":["dummytask","questa_dummy_job",90],"value":{"x":40.1242,"y":41.1413,"r":31.5}},
{"id":"results","key":["dummytask","questa_dummy_job",91],"value":{"x":40.1242,"y":41.1413,"r":31.5}},
{"id":"results","key":["dummytask","questa_dummy_job",92],"value":{"x":40.1242,"y":41.1413,"r":31.5}},
{"id":"results","key":["dummytask","questa_dummy_job",93],"value":{"x":40.1242,"y":41.1413,"r":31.5}},
{"id":"results","key":["dummytask","questa_dummy_job",94],"value":{"x":40.1242,"y":41.1413,"r":31.5}},
{"id":"results","key":["dummytask","questa_dummy_job",95],"value":{"x":40.1242,"y":41.1413,"r":31.5}},
{"id":"results","key":["dummytask","questa_dummy_job",96],"value":{"x":40.1242,"y":41.1413,"r":31.5}},
{"id":"results","key":["dummytask","questa_dummy_job",97],"value":{"x":40.1242,"y":41.1413,"r":31.5}},
{"id":"results","key":["dummytask","questa_dummy_job",98],"value":{"x":40.1242,"y":41.1413,"r":31.5}},
{"id":"results","key":["dummytask","questa_dummy_job",99],"value":{"x":40.1242,"y":41.1413,"r":31.5}},
{"id":"results","key":["dummytask","questa_dummy_job",100],"value":{"x":40.1242,"y":41.1413,"r":31.5}},
{"id":"results","key":["dummytask","questa_dummy_job",101],"value":{"x":40.1242,"y":41.1413,"r":31.5}},
{"id":"results","key":["dummytask","questa_dummy_job",102],"value":{"x":40.1242,"y":41.1413,"r":31.5}},
{"id":"results","key":["dummytask","questa_dummy_job",103],"value":{"x":40.1242,"y":41.1413,"r":31.5}},
{"id":"results","key":["dummytask","questa_dummy_job",104],"value":{"x":40.1242,"y":41.1413,"r":31.5}},
{"id":"results","key":["dummytask","questa_dummy_job",105],"value":{"x":40.1242,"y":41.1413,"r":31.5}},
{"id":"results","key":["dummytask","questa_dummy_job",106],"value":{"x":40.1242,"y":41.1413,"r":31.5}},
{"id":"results","key":["dummytask","questa_dummy_job",107],"value":{"x":40.1242,"y":41.1413,"r":31.5}},
{"id":"results","key":["dummytask","questa_dummy_job",108],"value":{"x":40.1242,"y":41.1413,"r":31.5}},
{"id":"results","key":["dummytask","questa_dummy_job",109],"value":{"x":40.1242,"y":41.1413,"r":31.5}},
{"id":"results","key":["dummytask","questa_dummy_job",110],"value":{"x":40.1242,"y":41.1413,"r":31.5}},
{"id":"results","key":["dummytask","questa_dummy_job",111],"value":{"x":40.1242,"y":41.1413,"r":31.5}},
{"id":"results","key":["dummytask","questa_dummy_job",112],"value":{"x":40.1242,"y":41.1413,"r":31.5}},
{"id":"results","key":["dummytask","questa_dummy_job",113],"value":{"x":40.1242,"y":41.1413,"r":31.5}},
{"id":"results","key":["dummytask","questa_dummy_job",114],"value":{"x":40.1242,"y":41.1413,"r":31.5}},
{"id":"results","key":["dummytask","questa_dummy_job",115],"value":{"x":40.1242,"y":41.1413,"r":31.5}},
{"id":"results","key":["dummytask","questa_dummy_job",116],"value":{"x":40.1242,"y":41.1413,"r":31.5}},
{"id":"results","key":["dummytask","questa_dummy_job",117],"value":{"x":40.1242,"y":41.1413,"r":31.5}},
{"id":"results","key":["dummytask","questa_dummy_job",118],"value":{"x":40.1242,"y":41.1413,"r":31.5}},
{"id":"results","key":["dummytask","questa_dummy_job",119],"value":{"x":40.1242,"y":41.1413,"r":31.5}},
{"id":"results","key":["dummytask","questa_dummy_job",120],"value":{"x":40.1242,"y":41.1413,"r":31.5}},
{"id":"results","key":["dummytask","questa_dummy_job",121],"value":{"x":40.1242,"y":41.1413,"r":31.5}},
{"id":"results","key":["dummytask","questa_dummy_job",122],"value":{"x":40.1242,"y":41.1413,"r":31.5}},
{"id":"results","key":["dummytask","questa_dummy_job",123],"value":{"x":40.1242,"y":41.1413,"r":31.5}},
{"id":"results","key":["dummytask","questa_dummy_job",124],"value":{"x":40.1242,"y":41.1413,"r":31.5}},
{"id":"results","key":["dummytask","questa_dummy_job",125],"value":{"x":40.1242,"y":41.1413,"r":31.5}},
{"id":"results","key":["dummytask","questa_dummy_job",126],"value":{"x":40.1242,"y":41.1413,"r":31.5}},
{"id":"results","key":["dummytask","questa_dummy_job",127],"value":{"x":40.1242,"y":41.1413,"r":31.5}},
{"id":"results","key":["dummytask","questa_dummy_job",128],"value":{"x":40.1242,"y":41.1413,"r":31.5}},
{"id":"results","key":["dummytask","questa_dummy_job",129],"value":{"x":40.1242,"y":41.1413,"r":31.5}},
{"id":"results","key":["dummytask","questa_dummy_job",130],"value":{"x":40.1242,"y":41.1413,"r":31.5}},
{"id":"results","key":["dummytask","questa_dummy_job",131],"value":{"x":40.1242,"y":41.1413,"r":31.5}},
{"id":"results","key":["dummytask","questa_dummy_job",132],"value":{"x":40.1242,"y":41.1413,"r":31.5}},
{"id":"results","key":["dummytask","questa_dummy_job",133],"value":{"x":40.1242,"y":41.1413,"r":31.5}},
{"id":"results","key":["dummytask","questa_dummy_job",134],"value":{"x":40.1242,"y":41.1413,"r":31.5}},
{"id":"results","key":["dummytask","questa_dummy_job",135],"value":{"x":40.1242,"y":41.1413,"r":31.5}},
{"id":"results","key":["dummytask","questa_dummy_job",136],"value":{"x":40.1242,"y":41.1413,"r":31.5}},
{"id":"results","key":["dummytask","questa_dummy_job",137],"value":{"x":40.1242,"y":41.1413,"r":31.5}},
{"id":"results","key":["dummytask","questa_dummy_job",138],"value":{"x":40.1242,"y":41.1413,"r":31.5}},
{"id":"results","key":["dummytask","questa_dummy_job",139],"value":{"x":40.1242,"y":41.1413,"r":31.5}},
{"id":"results","key":["dummytask","questa_dummy_job",140],"value":{"x":40.1242,"y":41.1413,"r":31.5}},
{"id":"results","key":["dummytask","questa_dummy_job",141],"value":{"x":40.1242,"y":41.1413,"r":31.5}},
{"id":"results","key":["dummytask","questa_dummy_job",142],"value":{"x":40.1242,"y":41.1413,"r":31.5}},
{"id":"results","key":["dummytask","questa_dummy_job",143],"value":{"x":40.1242,"y":41.1413,"r":31.5}},
{"id":"results","key":["dummytask","questa_dummy_job",144],"value":{"x":40.1242,"y":41.1413,"r":31.5}},
{"id":"results","key":["dummytask","questa_dummy_job",145],"value":{"x":40.1242,"y":41.1413,"r":31.5}},
{"id":"results","key":["dummytask","questa_dummy_job",146],"value":{"x":40.1242,"y":41.1413,"r":31.5}},
{"id":"results","key":["dummytask","questa_dummy_job",147],"value":{"x":40.1242,"y":41.1413,"r":31.5}},
{"id":"results","key":["dummytask","questa_dummy_job",148],"value":{"x":40.1242,"y":41.1413,"r":31.5}},
{"id":"results","key":["dummytask","questa_dummy_job",149],"value":{"x":40.1242,"y":41.1413,"r":31.5}},
{"id":"results","key":["dummytask","questa_dummy_job",150],"value":{"x":40.1242,"y":41.1413,"r":31.5}},
{"id":"results","key":["dummytask","questa_dummy_job",151],"value":{"x":40.1242,"y":41.1413,"r":31.5}},
{"id":"results","key":["dummytask","questa_dummy_job",152],"value":{"x":40.1242,"y":41.1413,"r":31.5}},
{"id":"results","key":["dummytask","questa_dummy_job",153],"value":{"x":40.1242,"y":41.1413,"r":31.5}},
{"id":"results","key":["dummytask","questa_dummy_job",154],"value":{"x":40.1242,"y":41.1413,"r":31.5}},
{"id":"results","key":["dummytask","questa_dummy_job",155],"value":{"x":40.1242,"y":41.1413,"r":31.5}},
{"id":"results","key":["dummytask","questa_dummy_job",156],"value":{"x":40.1242,"y":41.1413,"r":31.5}},
{"id":"results","key":["dummytask","questa_dummy_job",157],"value":{"x":40.1242,"y":41.1413,"r":31.5}},
{"id":"results","key":["dummytask","questa_dummy_job",158],"value":{"x":40.1242,"y":41.1413,"r":31.5}},
{"id":"results","key":["dummytask","questa_dummy_job",159],"value":{"x":40.1242,"y":41.1413,"r":31.5}},
{"id":"results","key":["dummytask","questa_dummy_job",160],"value":{"x":40.1242,"y":41.1413,"r":31.5}},
{"id":"results","key":["dummytask","questa_dummy_job",161],"value":{"x":40.1242,"y":41.1413,"r":31.5}},
{"id":"results","key":["dummytask","questa_dummy_job",162],"value":{"x":40.1242,"y":41.1413,"r":31.5}},
{"id":"results","key":["dummytask","questa_dummy_job",163],"value":{"x":40.1242,"y":41.1413,"r":31.5}},
{"id":"results","key":["dummytask","questa_dummy_job",164],"value":{"x":40.1242,"y":41.1413,"r":31.5}},
{"id":"results","key":["dummytask","questa_dummy_job",165],"value":{"x":40.1242,"y":41.1413,"r":31.5}},
{"id":"results","key":["dummytask","questa_dummy_job",166],"value":{"x":40.1242,"y":41.1413,"r":31.5}},
{"id":"results","key":["dummytask","questa_dummy_job",167],"value":{"x":40.1242,"y":41.1413,"r":31.5}},
{"id":"results","key":["dummytask","questa_dummy_job",168],"value":{"x":40.1242,"y":41.1413,"r":31.5}},
{"id":"results","key":["dummytask","questa_dummy_job",169],"value":{"x":40.1242,"y":41.1413,"r":31.5}},
{"id":"results","key":["dummytask","questa_dummy_job",170],"value":{"x":40.1242,"y":41.1413,"r":31.5}},
{"id":"results","key":["dummytask","questa_dummy_job",171],"value":{"x":40.1242,"y":41.1413,"r":31.5}},
{"id":"results","key":["dummytask","questa_dummy_job",172],"value":{"x":40.1242,"y":41.1413,"r":31.5}},
{"id":"results","key":["dummytask","questa_dummy_job",173],"value":{"x":40.1242,"y":41.1413,"r":31.5}},
{"id":"results","key":["dummytask","questa_dummy_job",174],"value":{"x":40.1242,"y":41.1413,"r":31.5}},
{"id":"results","key":["dummytask","questa_dummy_job",175],"value":{"x":40.1242,"y":41.1413,"r":31.5}},
{"id":"results","key":["dummytask","questa_dummy_job",176],"value":{"x":40.1242,"y":41.1413,"r":31.5}},
{"id":"results","key":["dummytask","questa_dummy_job",177],"value":{"x":40.1242,"y":41.1413,"r":31.5}},
{"id":"results","key":["dummytask","questa_dummy_job",178],"value":{"x":40.1242,"y":41.1413,"r":31.5}},
{"id":"results","key":["dummytask","questa_dummy_job",179],"value":{"x":40.1242,"y":41.1413,"r":31.5}},
{"id":"results","key":["dummytask","questa_dummy_job",180],"value":{"x":40.1242,"y":41.1413,"r":31.5}},
{"id":"results","key":["dummytask","questa_dummy_job",181],"value":{"x":40.1242,"y":41.1413,"r":31.5}},
{"id":"results","key":["dummytask","questa_dummy_job",182],"value":{"x":40.1242,"y":41.1413,"r":31.5}},
{"id":"results","key":["dummytask","questa_dummy_job",183],"value":{"x":40.1242,"y":41.1413,"r":31.5}},
{"id":"results","key":["dummytask","questa_dummy_job",184],"value":{"x":40.1242,"y":41.1413,"r":31.5}},
{"id":"results","key":["dummytask","questa_dummy_job",185],"value":{"x":40.1242,"y":41.1413,"r":31.5}},
{"id":"results","key":["dummytask","questa_dummy_job",186],"value":{"x":40.1242,"y":41.1413,"r":31.5}},
{"id":"results","key":["dummytask","questa_dummy_job",187],"value":{"x":40.1242,"y":41.1413,"r":31.5}},
{"id":"results","key":["dummytask","questa_dummy_job",188],"value":{"x":40.1242,"y":41.1413,"r":31.5}},
{"id":"results","key":["dummytask","questa_dummy_job",189],"value":{"x":40.1242,"y":41.1413,"r":31.5}},
{"id":"results","key":["dummytask","questa_dummy_job",190],"value":{"x":40.1242,"y":41.1413,"r":31.5}},
{"id":"results","key":["dummytask","questa_dummy_job",191],"value":{"x":40.1242,"y":41.1413,"r":31.5}},
{"id":"results","key":["dummytask","questa_dummy_job",192],"value":{"x":40.1242,"y":41.1413,"r":31.5}},
{"id":"results","key":["dummytask","questa_dummy_job",193],"value":{"x":40.1242,"y":41.1413,"r":31.5}},
{"id":"results","key":["dummytask","questa_dummy_job",194],"value":{"x":40.1242,"y":41.1413,"r":31.5}},
{"id":"results","key":["dummytask","questa_dummy_job",195],"value":{"x":40.1242,"y":41.1413,"r":31.5}},
{"id":"results","key":["dummytask","questa_dummy_job",196],"value":{"x":40.1242,"y":41.1413,"r":31.5}},
{"id":"results","key":["dummytask","questa_dummy_job",197],"value":{"x":40.1242,"y":41.1413,"r":31.5}},
{"id":"results","key":["dummytask","questa_dummy_job",198],"value":{"x":40.1242,"y":41.1413,"r":31.5}},
{"id":"results","key":["dummytask","questa_dummy_job",199],"value":{"x":40.1242,"y":41.1413,"r":31.5}},
{"id":"results","key":["dummytask","questa_dummy_job",200],"value":{"x":40.1242,"y":41.1413,"r":31.5}},
{"id":"results","key":["dummytask","questa_dummy_job",201],"value":{"x":40.1242,"y":41.1413,"r":31.5}},
{"id":"results","key":["dummytask","questa_dummy_job",202],"value":{"x":40.1242,"y":41.1413,"r":31.5}},
{"id":"results","key":["dummytask","questa_dummy_job",203],"value":{"x":40.1242,"y":41.1413,"r":31.5}},
{"id":"results","key":["dummytask","questa_dummy_job",204],"value":{"x":40.1242,"y":41.1413,"r":31.5}},
{"id":"results","key":["dummytask","questa_dummy_job",205],"value":{"x":40.1242,"y":41.1413,"r":31.5}},
{"id":"results","key":["dummytask","questa_dummy_job",206],"value":{"x":40.1242,"y":41.1413,"r":31.5}},
{"id":"results","key":["dummytask","questa_dummy_job",207],"value":{"x":40.1242,"y":41.1413,"r":31.5}},
{"id":"results","key":["dummytask","questa_dummy_job",208],"value":{"x":40.1242,"y":41.1413,"r":31.5}},
{"id":"results","key":["dummytask","questa_dummy_job",209],"value":{"x":40.1242,"y":41.1413,"r":31.5}},
{"id":"results","key":["dummytask","questa_dummy_job",210],"value":{"x":40.1242,"y":41.1413,"r":31.5}},
{"id":"results","key":["dummytask","questa_dummy_job",211],"value":{"x":40.1242,"y":41.1413,"r":31.5}},
{"id":"results","key":["dummytask","questa_dummy_job",212],"value":{"x":40.1242,"y":41.1413,"r":31.5}},
{"id":"results","key":["dummytask","questa_dummy_job",213],"value":{"x":40.1242,"y":41.1413,"r":31.5}},
{"id":"results","key":["dummytask","questa_dummy_job",214],"value":{"x":40.1242,"y":41.1413,"r":31.5}},
{"id":"results","key":["dummytask","questa_dummy_job",215],"value":{"x":40.1242,"y":41.1413,"r":31.5}},
{"id":"results","key":["dummytask","questa_dummy_job",216],"value":{"x":40.1242,"y":41.1413,"r":31.5}},
{"id":"results","key":["dummytask","questa_dummy_job",217],"value":{"x":40.1242,"y":41.1413,"r":31.5}},
{"id":"results","key":["dummytask","questa_dummy_job",218],"value":{"x":40.1242,"y":41.1413,"r":31.5}},
{"id":"results","key":["dummytask","questa_dummy_job",219],"value":{"x":40.1242,"y":41.1413,"r":31.5}},
{"id":"results","key":["dummytask","questa_dummy_job",220],"value":{"x":40.1242,"y":41.1413,"r":31.5}},
{"id":"results","key":["dummytask","questa_dummy_job",221],"value":{"x":40.1242,"y":41.1413,"r":31.5}},
{"id":"results","key":["dummytask","questa_dummy_job",222],"value":{"x":40.1242,"y":41.1413,"r":31.5}},
{"id":"results","key":["dummytask","questa_dummy_job",223],"value":{"x":40.1242,"y":41.1413,"r":31.5}},
{"id":"results","key":["dummytask","questa_dummy_job",224],"value":{"x":40.1242,"y":41.1413,"r":31.5}},
{"id":"results","key":["dummytask","questa_dummy_job",225],"value":{"x":40.1242,"y":41.1413,"r":31.5}},
{"id":"results","key":["dummytask","questa_dummy_job",226],"value":{"x":40.1242,"y":41.1413,"r":31.5}},
{"id":"results","key":["dummytask","questa_dummy_job",227],"value":{"x":40.1242,"y":41.1413,"r":31.5}},
{"id":"results","key":["dummytask","questa_dummy_job",228],"value":{"x":40.1242,"y":41.1413,"r":31.5}},
{"id":"results","key":["dummytask","questa_dummy_job",229],"value":{"x":40.1242,"y":41.1413,"r":31.5}},
{"id":"results","key":["dummytask","questa_dummy_job",230],"value":{"x":40.1242,"y":41.1413,"r":31.5}},
{"id":"results","key":["dummytask","questa_dummy_job",231],"value":{"x":40.1242,"y":41.1413,"r":31.5}},
{"id":"results","key":["dummytask","questa_dummy_job",232],"value":{"x":40.1242,"y":41.1413,"r":31.5}},
{"id":"results","key":["dummytask","questa_dummy_job",233],"value":{"x":40.1242,"y":41.1413,"r":31.5}},
{"id":"results","key":["dummytask","questa_dummy_job",234],"value":{"x":40.1242,"y":41.1413,"r":31.5}},
{"id":"results","key":["dummytask","questa_dummy_job",235],"value":{"x":40.1242,"y":41.1413,"r":31.5}},
{"id":"results","key":["dummytask","questa_dummy_job",236],"value":{"x":40.1242,"y":41.1413,"r":31.5}},
{"id":"results","key":["dummytask","questa_dummy_job",237],"value":{"x":40.1242,"y":41.1413,"r":31.5}},
{"id":"results","key":["dummytask","questa_dummy_job",238],"value":{"x":40.1242,"y":41.1413,"r":31.5}},
{"id":"results","key":["dummytask","questa_dummy_job",239],"value":{"x":40.1242,"y":41.1413,"r":31.5}},
{"id":"results","key":["dummytask","questa_dummy_job",240],"value":{"x":40.1242,"y":41.1413,"r":31.5}},
{"id":"results","key":["dummytask","questa_dummy_job",241],"value":{"x":40.1242,"y":41.1413,"r":31.5}},
{"id":"results","key":["dummytask","questa_dummy_job",242],"value":{"x":40.1242,"y":41.1413,"r":31.5}},
{"id":"results","key":["dummytask","questa_dummy_job",243],"value":{"x":40.1242,"y":41.1413,"r":31.5}},
{"id":"results","key":["dummytask","questa_dummy_job",244],"value":{"x":40.1242,"y":41.1413,"r":31.5}},
{"id":"results","key":["dummytask","questa_dummy_job",245],"value":{"x":40.1242,"y":41.1413,"r":31.5}},
{"id":"results","key":["dummytask","questa_dummy_job",246],"value":{"x":40.1242,"y":41.1413,"r":31.5}},
{"id":"results","key":["dummytask","questa_dummy_job",247],"value":{"x":40.1242,"y":41.1413,"r":31.5}},
{"id":"results","key":["dummytask","questa_dummy_job",248],"value":{"x":40.1242,"y":41.1413,"r":31.5}},
{"id":"results","key":["dummytask","questa_dummy_job",249],"value":{"x":40.1242,"y":41.1413,"r":31.5}},
{"id":"results","key":["dummytask","questa_dummy_job",250],"value":{"x":40.1242,"y":41.1413,"r":31.5}},
{"id":"results","key":["dummytask","questa_dummy_job",251],"value":{"x":40.1242,"y":41.1413,"r":31.5}},
{"id":"results","key":["dummytask","questa_dummy_job",252],"value":{"x":40.1242,"y":41.1413,"r":31.5}},
{"id":"results","key":["dummytask","questa_dummy_job",253],"value":{"x":40.1242,"y":41.1413,"r":31.5}},
{"id":"results","key":["dummytask","questa_dummy_job",254],"value":{"x":40.1242,"y":41.1413,"r":31.5}},
{"id":"results","key":["dummytask","questa_dummy_job",255],"value":{"x":40.1242,"y":41.1413,"r":31.5}},
{"id":"results","key":["dummytask","questa_dummy_job",256],"value":{"x":40.1242,"y":41.1413,"r":31.5}},
{"id":"results","key":["dummytask","questa_dummy_job",257],"value":{"x":40.1242,"y":41.1413,"r":31.5}},
{"id":"results","key":["dummytask","questa_dummy_job",258],"value":{"x":40.1242,"y":41.1413,"r":31.5}},
{"id":"results","key":["dummytask","questa_dummy_job",259],"value":{"x":40.1242,"y":41.1413,"r":31.5}},
{"id":"results","key":["dummytask","questa_dummy_job",260],"value":{"x":40.1242,"y":41.1413,"r":31.5}},
{"id":"results","key":["dummytask","questa_dummy_job",261],"value":{"x":40.1242,"y":41.1413,"r":31.5}},
{"id":"results","key":["dummytask","questa_dummy_job",262],"value":{"x":40.1242,"y":41.1413,"r":31.5}},
{"id":"results","key":["dummytask","questa_dummy_job",263],"value":{"x":40.1242,"y":41.1413,"r":31.5}},
{"id":"results","key":["dummytask","questa_dummy_job",264],"value":{"x":40.1242,"y":41.1413,"r":31.5}},
{"id":"results","key":["dummytask","questa_dummy_job",265],"value":{"x":40.1242,"y":41.1413,"r":31.5}},
{"id":"results","key":["dummytask","questa_dummy_job",266],"value":{"x":40.1242,"y":41.1413,"r":31.5}},
{"id":"results","key":["dummytask","questa_dummy_job",267],"value":{"x":40.1242,"y":41.1413,"r":31.5}},
{"id":"results","key":["dummytask","questa_dummy_job",268],"value":{"x":40.1242,"y":41.1413,"r":31.5}},
{"id":"results","key":["dummytask","questa_dummy_job",269],"value":{"x":40.1242,"y":41.1413,"r":31.5}},
{"id":"results","key":["dummytask","questa_dummy_job",270],"value":{"x":40.1242,"y":41.1413,"r":31.5}},
{"id":"results","key":["dummytask","questa_dummy_job",271],"value":{"x":40.1242,"y":41.1413,"r":31.5}},
{"id":"results","key":["dummytask","questa_dummy_job",272],"value":{"x":40.1242,"y":41.1413,"r":31.5}},
{"id":"results","key":["dummytask","questa_dummy_job",273],"value":{"x":40.1242,"y":41.1413,"r":31.5}},
{"id":"results","key":["dummytask","questa_dummy_job",274],"value":{"x":40.1242,"y":41.1413,"r":31.5}},
{"id":"results","key":["dummytask","questa_dummy_job",275],"value":{"x":40.1242,"y":41.1413,"r":31.5}},
{"id":"results","key":["dummytask","questa_dummy_job",276],"value":{"x":40.1242,"y":41.1413,"r":31.5}},
{"id":"results","key":["dummytask","questa_dummy_job",277],"value":{"x":40.1242,"y":41.1413,"r":31.5}},
{"id":"results","key":["dummytask","questa_dummy_job",278],"value":{"x":40.1242,"y":41.1413,"r":31.5}},
{"id":"results","key":["dummytask","questa_dummy_job",279],"value":{"x":40.1242,"y":41.1413,"r":31.5}},
{"id":"results","key":["dummytask","questa_dummy_job",280],"value":{"x":40.1242,"y":41.1413,"r":31.5}},
{"id":"results","key":["dummytask","questa_dummy_job",281],"value":{"x":40.1242,"y":41.1413,"r":31.5}},
{"id":"results","key":["dummytask","questa_dummy_job",282],"value":{"x":40.1242,"y":41.1413,"r":31.5}},
{"id":"results","key":["dummytask","questa_dummy_job",283],"value":{"x":40.1242,"y":41.1413,"r":31.5}},
{"id":"results","key":["dummytask","questa_dummy_job",284],"value":{"x":40.1242,"y":41.1413,"r":31.5}},
{"id":"results","key":["dummytask","questa_dummy_job",285],"value":{"x":40.1242,"y":41.1413,"r":31.5}},
{"id":"results","key":["dummytask","questa_dummy_job",286],"value":{"x":40.1242,"y":41.1413,"r":31.5}},
{"id":"results","key":["dummytask","questa_dummy_job",287],"value":{"x":40.1242,"y":41.1413,"r":31.5}},
{"id":"results","key":["dummytask","questa_dummy_job",288],"value":{"x":40.1242,"y":41.1413,"r":31.5}},
{"id":"results","key":["dummytask","questa_dummy_job",289],"value":{"x":40.1242,"y":41.1413,"r":31.5}},
{"id":"results","key":["dummytask","questa_dummy_job",290],"value":{"x":40.1242,"y":41.1413,"r":31.5}},
{"id":"results","key":["dummytask","questa_dummy_job",291],"value":{"x":40.1242,"y":41.1413,"r":31.5}},
{"id":"results","key":["dummytask","questa_dummy_job",292],"value":{"x":40.1242,"y":41.1413,"r":31.5}},
{"id":"results","key":["dummytask","questa_dummy_job",293],"value":{"x":40.1242,"y":41.1413,"r":31.5}},
{"id":"results","key":["dummytask","questa_dummy_job",294],"value":{"x":40.1242,"y":41.1413,"r":31.5}},
{"id":"results","key":["dummytask","questa_dummy_job",295],"value":{"x":40.1242,"y":41.1413,"r":31.5}},
{"id":"results","key":["dummytask","questa_dummy_job",296],"value":{"x":40.1242,"y":41.1413,"r":31.5}},
{"id":"results","key":["dummytask","questa_dummy_job",297],"value":{"x":40.1242,"y":41.1413,"r":31.5}},
{"id":"results","key":["dummytask","questa_dummy_job",298],"value":{"x":40.1242,"y":41.1413,"r":31.5}},
{"id":"results","key":["dummytask","questa_dummy_job",299],"value":{"x":40.1242,"y":41.1413,"r":31.5}},
{"id":"results","key":["dummytask","questa_dummy_job",300],"value":{"x":40.1242,"y":41.1413,"r":31.5}},
{"id":"results","key":["dummytask","questa_dummy_job",301],"value":{"x":40.1242,"y":41.1413,"r":31.5}},
{"id":"results","key":["dummytask","questa_dummy_job",302],"value":{"x":40.1242,"y":41.1413,"r":31.5}},
{"id":"results","key":["dummytask","questa_dummy_job",303],"value":{"x":40.1242,"y":41.1413,"r":31.5}},
{"id":"results","key":["dummytask","questa_dummy_job",304],"value":{"x":40.1242,"y":41.1413,"r":31.5}},
{"id":"results","key":["dummytask","questa_dummy_job",305],"value":{"x":40.1242,"y":41.1413,"r":31.5}},
{"id":"results","key":["dummytask","questa_dummy_job",306],"value":{"x":40.1242,"y":41.1413,"r":31.5}},
{"id":"results","key":["dummytask","questa_dummy_job",307],"value":{"x":40.1242,"y":41.1413,"r":31.5}},
{"id":"results","key":["dummytask","questa_dummy_job",308],"value":{"x":40.1242,"y":41.1413,"r":31.5}},
{"id":"results","key":["dummytask","questa_dummy_job",309],"value":{"x":40.1242,"y":41.1413,"r":31.5}},
{"id":"results","key":["dummytask","questa_dummy_job",310],"value":{"x":40.1242,"y":41.1413,"r":31.5}},
{"id":"results","key":["dummytask","questa_dummy_job",311],"value":{"x":40.1242,"y":41.1413,"r":31.5}},
{"id":"results","key":["dummytask","questa_dummy_job",312],"value":{"x":40.1242,"y":41.1413,"r":31.5}},
{"id":"results","key":["dummytask","questa_dummy_job",313],"value":{"x":40.1242,"y":41.1413,"r":31.5}},
{"id":"results","key":["dummytask","questa_dummy_job",314],"value":{"x":40.1242,"y":41.1413,"r":31.5}},
{"id":"results","key":["dummytask","questa_dummy_job",315],"value":{"x":40.1242,"y":41.1413,"r":31.5}},
{"id":"results","key":["dummytask","questa_dummy_job",316],"value":{"x":40.1242,"y":41.1413,"r":31.5}},
{"id":"results","key":["dummytask","questa_dummy_job",317],"value":{"x":40.1242,"y":41.1413,"r":31.5}},
{"id":"results","key":["dummytask","questa_dummy_job",318],"value":{"x":40.1242,"y":41.1413,"r":31.5}},
{"id":"results","key":["dummytask","questa_dummy_job",319],"value":{"x":40.1242,"y":41.1413,"r":31.5}},
{"id":"results","key":["dummytask","questa_dummy_job",320],"value":{"x":40.1242,"y":41.1413,"r":31.5}},
{"id":"results","key":["dummytask","questa_dummy_job",321],"value":{"x":40.1242,"y":41.1413,"r":31.5}},
{"id":"results","key":["dummytask","questa_dummy_job",322],"value":{"x":40.1242,"y":41.1413,"r":31.5}},
{"id":"results","key":["dummytask","questa_dummy_job",323],"value":{"x":40.1242,"y":41.1413,"r":31.5}},
{"id":"results","key":["dummytask","questa_dummy_job",324],"value":{"x":40.1242,"y":41.1413,"r":31.5}},
{"id":"results","key":["dummytask","questa_dummy_job",325],"value":{"x":40.1242,"y":41.1413,"r":31.5}},
{"id":"results","key":["dummytask","questa_dummy_job",326],"value":{"x":40.1242,"y":41.1413,"r":31.5}},
{"id":"results","key":["dummytask","questa_dummy_job",327],"value":{"x":40.1242,"y":41.1413,"r":31.5}},
{"id":"results","key":["dummytask","questa_dummy_job",328],"value":{"x":40.1242,"y":41.1413,"r":31.5}},
{"id":"results","key":["dummytask","questa_dummy_job",329],"value":{"x":40.1242,"y":41.1413,"r":31.5}},
{"id":"results","key":["dummytask","questa_dummy_job",330],"value":{"x":40.1242,"y":41.1413,"r":31.5}},
{"id":"results","key":["dummytask","questa_dummy_job",331],"value":{"x":40.1242,"y":41.1413,"r":31.5}},
{"id":"results","key":["dummytask","questa_dummy_job",332],"value":{"x":40.1242,"y":41.1413,"r":31.5}},
{"id":"results","key":["dummytask","questa_dummy_job",333],"value":{"x":40.1242,"y":41.1413,"r":31.5}},
{"id":"results","key":["dummytask","questa_dummy_job",334],"value":{"x":40.1242,"y":41.1413,"r":31.5}},
{"id":"results","key":["dummytask","questa_dummy_job",335],"value":{"x":40.1242,"y":41.1413,"r":31.5}},
{"id":"results","key":["dummytask","questa_dummy_job",336],"value":{"x":40.1242,"y":41.1413,"r":31.5}},
{"id":"results","key":["dummytask","questa_dummy_job",337],"value":{"x":40.1242,"y":41.1413,"r":31.5}},
{"id":"results","key":["dummytask","questa_dummy_job",338],"value":{"x":40.1242,"y":41.1413,"r":31.5}},
{"id":"results","key":["dummytask","questa_dummy_job",339],"value":{"x":40.1242,"y":41.1413,"r":31.5}},
{"id":"results","key":["dummytask","questa_dummy_job",340],"value":{"x":40.1242,"y":41.1413,"r":31.5}},
{"id":"results","key":["dummytask","questa_dummy_job",341],"value":{"x":40.1242,"y":41.1413,"r":31.5}},
{"id":"results","key":["dummytask","questa_dummy_job",342],"value":{"x":40.1242,"y":41.1413,"r":31.5}},
{"id":"results","key":["dummytask","questa_dummy_job",343],"value":{"x":40.1242,"y":41.1413,"r":31.5}},
{"id":"results","key":["dummytask","questa_dummy_job",344],"value":{"x":40.1242,"y":41.1413,"r":31.5}},
{"id":"results","key":["dummytask","questa_dummy_job",345],"value":{"x":40.1242,"y":41.1413,"r":31.5}},
{"id":"results","key":["dummytask","questa_dummy_job",346],"value":{"x":40.1242,"y":41.1413,"r":31.5}},
{"id":"results","key":["dummytask","questa_dummy_job",347],"value":{"x":40.1242,"y":41.1413,"r":31.5}},
{"id":"results","key":["dummytask","questa_dummy_job",348],"value":{"x":40.1242,"y":41.1413,"r":31.5}},
{"id":"results","key":["dummytask","questa_dummy_job",349],"value":{"x":40.1242,"y":41.1413,"r":31.5}},
{"id":"results","key":["dummytask","questa_dummy_job",350],"value":{"x":40.1242,"y":41.1413,"r":31.5}},
{"id":"results","key":["dummytask","questa_dummy_job",351],"value":{"x":40.1242,"y":41.1413,"r":31.5}},
{"id":"results","key":["dummytask","questa_dummy_job",352],"value":{"x":40.1242,"y":41.1413,"r":31.5}},
{"id":"results","key":["dummytask","questa_dummy_job",353],"value":{"x":40.1242,"y":41.1413,"r":31.5}},
{"id":"results","key":["dummytask","questa_dummy_job",354],"value":{"x":40.1242,"y":41.1413,"r":31.5}},
{"id":"results","key":["dummytask","questa_dummy_job",355],"value":{"x":40.1242,"y":41.1413,"r":31.5}},
{"id":"results","key":["dummytask","questa_dummy_job",356],"value":{"x":40.1242,"y":41.1413,"r":31.5}},
{"id":"results","key":["dummytask","questa_dummy_job",357],"value":{"x":40.1242,"y":41.1413,"r":31.5}},
{"id":"results","key":["dummytask","questa_dummy_job",358],"value":{"x":40.1242,"y":41.1413,"r":31.5}},
{"id":"results","key":["dummytask","questa_dummy_job",359],"value":{"x":40.1242,"y":41.1413,"r":31.5}},
{"id":"results","key":["dummytask","questa_dummy_job",360],"value":{"x":40.1242,"y":41.1413,"r":31.5}},
{"id":"chasm_summary","key":["task_definition_dummyuid","dummy_job",0],"value":{"x":40.1242,"y":41.1413,"r":31.5}},
{"id":"chasm_summary","key":["task_definition_dummyuid","dummy_job",1],"value":{"x":40.1242,"y":41.1413,"r":31.5}},
{"id":"chasm_summary","key":["task_definition_dummyuid","dummy_job",2],"value":{"x":40.1242,"y":41.1413,"r":31.5}},
{"id":"chasm_summary","key":["task_definition_dummyuid","dummy_job",3],"value":{"x":40.1242,"y":41.1413,"r":31.5}},
{"id":"chasm_summary","key":["task_definition_dummyuid","dummy_job",4],"value":{"x":40.1242,"y":41.1413,"r":31.5}},
{"id":"chasm_summary","key":["task_definition_dummyuid","dummy_job",5],"value":{"x":40.1242,"y":41.1413,"r":31.5}},
{"id":"chasm_summary","key":["task_definition_dummyuid","dummy_job",6],"value":{"x":40.1242,"y":41.1413,"r":31.5}},
{"id":"chasm_summary","key":["task_definition_dummyuid","dummy_job",7],"value":{"x":40.1242,"y":41.1413,"r":31.5}},
{"id":"chasm_summary","key":["task_definition_dummyuid","dummy_job",8],"value":{"x":40.1242,"y":41.1413,"r":31.5}},
{"id":"chasm_summary","key":["task_definition_dummyuid","dummy_job",9],"value":{"x":40.1242,"y":41.1413,"r":31.5}},
{"id":"chasm_summary","key":["task_definition_dummyuid","dummy_job",10],"value":{"x":40.1242,"y":41.1413,"r":31.5}},
{"id":"chasm_summary","key":["task_definition_dummyuid","dummy_job",11],"value":{"x":40.1242,"y":41.1413,"r":31.5}},
{"id":"chasm_summary","key":["task_definition_dummyuid","dummy_job",12],"value":{"x":40.1242,"y":41.1413,"r":31.5}},
{"id":"chasm_summary","key":["task_definition_dummyuid","dummy_job",13],"value":{"x":40.1242,"y":41.1413,"r":31.5}},
{"id":"chasm_summary","key":["task_definition_dummyuid","dummy_job",14],"value":{"x":40.1242,"y":41.1413,"r":31.5}},
{"id":"chasm_summary","key":["task_definition_dummyuid","dummy_job",15],"value":{"x":40.1242,"y":41.1413,"r":31.5}},
{"id":"chasm_summary","key":["task_definition_dummyuid","dummy_job",16],"value":{"x":40.1242,"y":41.1413,"r":31.5}},
{"id":"chasm_summary","key":["task_definition_dummyuid","dummy_job",17],"value":{"x":40.1242,"y":41.1413,"r":31.5}},
{"id":"chasm_summary","key":["task_definition_dummyuid","dummy_job",18],"value":{"x":40.1242,"y":41.1413,"r":31.5}},
{"id":"chasm_summary","key":["task_definition_dummyuid","dummy_job",19],"value":{"x":40.1242,"y":41.1413,"r":31.5}},
{"id":"chasm_summary","key":["task_definition_dummyuid","dummy_job",20],"value":{"x":40.1242,"y":41.1413,"r":31.5}},
{"id":"chasm_summary","key":["task_definition_dummyuid","dummy_job",21],"value":{"x":40.1242,"y":41.1413,"r":31.5}},
{"id":"chasm_summary","key":["task_definition_dummyuid","dummy_job",22],"value":{"x":40.1242,"y":41.1413,"r":31.5}},
{"id":"chasm_summary","key":["task_definition_dummyuid","dummy_job",23],"value":{"x":40.1242,"y":41.1413,"r":31.5}},
{"id":"chasm_summary","key":["task_definition_dummyuid","dummy_job",24],"value":{"x":40.1242,"y":41.1413,"r":31.5}},
{"id":"chasm_summary","key":["task_definition_dummyuid","dummy_job",25],"value":{"x":40.1242,"y":41.1413,"r":31.5}},
{"id":"chasm_summary","key":["task_definition_dummyuid","dummy_job",26],"value":{"x":40.1242,"y":41.1413,"r":31.5}},
{"id":"chasm_summary","key":["task_definition_dummyuid","dummy_job",27],"value":{"x":40.1242,"y":41.1413,"r":31.5}},
{"id":"chasm_summary","key":["task_definition_dummyuid","dummy_job",28],"value":{"x":40.1242,"y":41.1413,"r":31.5}},
{"id":"chasm_summary","key":["task_definition_dummyuid","dummy_job",29],"value":{"x":40.1242,"y":41.1413,"r":31.5}},
{"id":"chasm_summary","key":["task_definition_dummyuid","dummy_job",30],"value":{"x":40.1242,"y":41.1413,"r":31.5}},
{"id":"chasm_summary","key":["task_definition_dummyuid","dummy_job",31],"value":{"x":40.1242,"y":41.1413,"r":31.5}},
{"id":"chasm_summary","key":["task_definition_dummyuid","dummy_job",32],"value":{"x":40.1242,"y":41.1413,"r":31.5}},
{"id":"chasm_summary","key":["task_definition_dummyuid","dummy_job",33],"value":{"x":40.1242,"y":41.1413,"r":31.5}},
{"id":"chasm_summary","key":["task_definition_dummyuid","dummy_job",34],"value":{"x":40.1242,"y":41.1413,"r":31.5}},
{"id":"chasm_summary","key":["task_definition_dummyuid","dummy_job",35],"value":{"x":40.1242,"y":41.1413,"r":31.5}},
{"id":"chasm_summary","key":["task_definition_dummyuid","dummy_job",36],"value":{"x":40.1242,"y":41.1413,"r":31.5}},
{"id":"chasm_summary","key":["task_definition_dummyuid","dummy_job",37],"value":{"x":40.1242,"y":41.1413,"r":31.5}},
{"id":"chasm_summary","key":["task_definition_dummyuid","dummy_job",38],"value":{"x":40.1242,"y":41.1413,"r":31.5}},
{"id":"chasm_summary","key":["task_definition_dummyuid","dummy_job",39],"value":{"x":40.1242,"y":41.1413,"r":31.5}},
{"id":"chasm_summary","key":["task_definition_dummyuid","dummy_job",40],"value":{"x":40.1242,"y":41.1413,"r":31.5}},
{"id":"chasm_summary","key":["task_definition_dummyuid","dummy_job",41],"value":{"x":40.1242,"y":41.1413,"r":31.5}},
{"id":"chasm_summary","key":["task_definition_dummyuid","dummy_job",42],"value":{"x":40.1242,"y":41.1413,"r":31.5}},
{"id":"chasm_summary","key":["task_definition_dummyuid","dummy_job",43],"value":{"x":40.1242,"y":41.1413,"r":31.5}},
{"id":"chasm_summary","key":["task_definition_dummyuid","dummy_job",44],"value":{"x":40.1242,"y":41.1413,"r":31.5}},
{"id":"chasm_summary","key":["task_definition_dummyuid","dummy_job",45],"value":{"x":40.1242,"y":41.1413,"r":31.5}},
{"id":"chasm_summary","key":["task_definition_dummyuid","dummy_job",46],"value":{"x":40.1242,"y":41.1413,"r":31.5}},
{"id":"chasm_summary","key":["task_definition_dummyuid","dummy_job",47],"value":{"x":40.1242,"y":41.1413,"r":31.5}},
{"id":"chasm_summary","key":["task_definition_dummyuid","dummy_job",48],"value":{"x":40.1242,"y":41.1413,"r":31.5}},
{"id":"chasm_summary","key":["task_definition_dummyuid","dummy_job",49],"value":{"x":40.1242,"y":41.1413,"r":31.5}},
{"id":"chasm_summary","key":["task_definition_dummyuid","dummy_job",50],"value":{"x":40.1242,"y":41.1413,"r":31.5}},
{"id":"chasm_summary","key":["task_definition_dummyuid","dummy_job",51],"value":{"x":40.1242,"y":41.1413,"r":31.5}},
{"id":"chasm_summary","key":["task_definition_dummyuid","dummy_job",52],"value":{"x":40.1242,"y":41.1413,"r":31.5}},
{"id":"chasm_summary","key":["task_definition_dummyuid","dummy_job",53],"value":{"x":40.1242,"y":41.1413,"r":31.5}},
{"id":"chasm_summary","key":["task_definition_dummyuid","dummy_job",54],"value":{"x":40.1242,"y":41.1413,"r":31.5}},
{"id":"chasm_summary","key":["task_definition_dummyuid","dummy_job",55],"value":{"x":40.1242,"y":41.1413,"r":31.5}},
{"id":"chasm_summary","key":["task_definition_dummyuid","dummy_job",56],"value":{"x":40.1242,"y":41.1413,"r":31.5}},
{"id":"chasm_summary","key":["task_definition_dummyuid","dummy_job",57],"value":{"x":40.1242,"y":41.1413,"r":31.5}},
{"id":"chasm_summary","key":["task_definition_dummyuid","dummy_job",58],"value":{"x":40.1242,"y":41.1413,"r":31.5}},
{"id":"chasm_summary","key":["task_definition_dummyuid","dummy_job",59],"value":{"x":40.1242,"y":41.1413,"r":31.5}},
{"id":"chasm_summary","key":["task_definition_dummyuid","dummy_job",60],"value":{"x":40.1242,"y":41.1413,"r":31.5}},
{"id":"chasm_summary","key":["task_definition_dummyuid","dummy_job",61],"value":{"x":40.1242,"y":41.1413,"r":31.5}},
{"id":"chasm_summary","key":["task_definition_dummyuid","dummy_job",62],"value":{"x":40.1242,"y":41.1413,"r":31.5}},
{"id":"chasm_summary","key":["task_definition_dummyuid","dummy_job",63],"value":{"x":40.1242,"y":41.1413,"r":31.5}},
{"id":"chasm_summary","key":["task_definition_dummyuid","dummy_job",64],"value":{"x":40.1242,"y":41.1413,"r":31.5}},
{"id":"chasm_summary","key":["task_definition_dummyuid","dummy_job",65],"value":{"x":40.1242,"y":41.1413,"r":31.5}},
{"id":"chasm_summary","key":["task_definition_dummyuid","dummy_job",66],"value":{"x":40.1242,"y":41.1413,"r":31.5}},
{"id":"chasm_summary","key":["task_definition_dummyuid","dummy_job",67],"value":{"x":40.1242,"y":41.1413,"r":31.5}},
{"id":"chasm_summary","key":["task_definition_dummyuid","dummy_job",68],"value":{"x":40.1242,"y":41.1413,"r":31.5}},
{"id":"chasm_summary","key":["task_definition_dummyuid","dummy_job",69],"value":{"x":40.1242,"y":41.1413,"r":31.5}},
{"id":"chasm_summary","key":["task_definition_dummyuid","dummy_job",70],"value":{"x":40.1242,"y":41.1413,"r":31.5}},
{"id":"chasm_summary","key":["task_definition_dummyuid","dummy_job",71],"value":{"x":40.1242,"y":41.1413,"r":31.5}},
{"id":"chasm_summary","key":["task_definition_dummyuid","dummy_job",72],"value":{"x":40.1242,"y":41.1413,"r":31.5}},
{"id":"chasm_summary","key":["task_definition_dummyuid","dummy_job",73],"value":{"x":40.1242,"y":41.1413,"r":31.5}},
{"id":"chasm_summary","key":["task_definition_dummyuid","dummy_job",74],"value":{"x":40.1242,"y":41.1413,"r":31.5}},
{"id":"chasm_summary","key":["task_definition_dummyuid","dummy_job",75],"value":{"x":40.1242,"y":41.1413,"r":31.5}},
{"id":"chasm_summary","key":["task_definition_dummyuid","dummy_job",76],"value":{"x":40.1242,"y":41.1413,"r":31.5}},
{"id":"chasm_summary","key":["task_definition_dummyuid","dummy_job",77],"value":{"x":40.1242,"y":41.1413,"r":31.5}},
{"id":"chasm_summary","key":["task_definition_dummyuid","dummy_job",78],"value":{"x":40.1242,"y":41.1413,"r":31.5}},
{"id":"chasm_summary","key":["task_definition_dummyuid","dummy_job",79],"value":{"x":40.1242,"y":41.1413,"r":31.5}},
{"id":"chasm_summary","key":["task_definition_dummyuid","dummy_job",80],"value":{"x":40.1242,"y":41.1413,"r":31.5}},
{"id":"chasm_summary","key":["task_definition_dummyuid","dummy_job",81],"value":{"x":40.1242,"y":41.1413,"r":31.5}},
{"id":"chasm_summary","key":["task_definition_dummyuid","dummy_job",82],"value":{"x":40.1242,"y":41.1413,"r":31.5}},
{"id":"chasm_summary","key":["task_definition_dummyuid","dummy_job",83],"value":{"x":40.1242,"y":41.1413,"r":31.5}},
{"id":"chasm_summary","key":["task_definition_dummyuid","dummy_job",84],"value":{"x":40.1242,"y":41.1413,"r":31.5}},
{"id":"chasm_summary","key":["task_definition_dummyuid","dummy_job",85],"value":{"x":40.1242,"y":41.1413,"r":31.5}},
{"id":"chasm_summary","key":["task_definition_dummyuid","dummy_job",86],"value":{"x":40.1242,"y":41.1413,"r":31.5}},
{"id":"chasm_summary","key":["task_definition_dummyuid","dummy_job",87],"value":{"x":40.1242,"y":41.1413,"r":31.5}},
{"id":"chasm_summary","key":["task_definition_dummyuid","dummy_job",88],"value":{"x":40.1242,"y":41.1413,"r":31.5}},
{"id":"chasm_summary","key":["task_definition_dummyuid","dummy_job",89],"value":{"x":40.1242,"y":41.1413,"r":31.5}},
{"id":"chasm_summary","key":["task_definition_dummyuid","dummy_job",90],"value":{"x":40.1242,"y":41.1413,"r":31.5}},
{"id":"chasm_summary","key":["task_definition_dummyuid","dummy_job",91],"value":{"x":40.1242,"y":41.1413,"r":31.5}},
{"id":"chasm_summary","key":["task_definition_dummyuid","dummy_job",92],"value":{"x":40.1242,"y":41.1413,"r":31.5}},
{"id":"chasm_summary","key":["task_definition_dummyuid","dummy_job",93],"value":{"x":40.1242,"y":41.1413,"r":31.5}},
{"id":"chasm_summary","key":["task_definition_dummyuid","dummy_job",94],"value":{"x":40.1242,"y":41.1413,"r":31.5}},
{"id":"chasm_summary","key":["task_definition_dummyuid","dummy_job",95],"value":{"x":40.1242,"y":41.1413,"r":31.5}},
{"id":"chasm_summary","key":["task_definition_dummyuid","dummy_job",96],"value":{"x":40.1242,"y":41.1413,"r":31.5}},
{"id":"chasm_summary","key":["task_definition_dummyuid","dummy_job",97],"value":{"x":40.1242,"y":41.1413,"r":31.5}},
{"id":"chasm_summary","key":["task_definition_dummyuid","dummy_job",98],"value":{"x":40.1242,"y":41.1413,"r":31.5}},
{"id":"chasm_summary","key":["task_definition_dummyuid","dummy_job",99],"value":{"x":40.1242,"y":41.1413,"r":31.5}},
{"id":"chasm_summary","key":["task_definition_dummyuid","dummy_job",100],"value":{"x":40.1242,"y":41.1413,"r":31.5}},
{"id":"chasm_summary","key":["task_definition_dummyuid","dummy_job",101],"value":{"x":40.1242,"y":41.1413,"r":31.5}},
{"id":"chasm_summary","key":["task_definition_dummyuid","dummy_job",102],"value":{"x":40.1242,"y":41.1413,"r":31.5}},
{"id":"chasm_summary","key":["task_definition_dummyuid","dummy_job",103],"value":{"x":40.1242,"y":41.1413,"r":31.5}},
{"id":"chasm_summary","key":["task_definition_dummyuid","dummy_job",104],"value":{"x":40.1242,"y":41.1413,"r":31.5}},
{"id":"chasm_summary","key":["task_definition_dummyuid","dummy_job",105],"value":{"x":40.1242,"y":41.1413,"r":31.5}},
{"id":"chasm_summary","key":["task_definition_dummyuid","dummy_job",106],"value":{"x":40.1242,"y":41.1413,"r":31.5}},
{"id":"chasm_summary","key":["task_definition_dummyuid","dummy_job",107],"value":{"x":40.1242,"y":41.1413,"r":31.5}},
{"id":"chasm_summary","key":["task_definition_dummyuid","dummy_job",108],"value":{"x":40.1242,"y":41.1413,"r":31.5}},
{"id":"chasm_summary","key":["task_definition_dummyuid","dummy_job",109],"value":{"x":40.1242,"y":41.1413,"r":31.5}},
{"id":"chasm_summary","key":["task_definition_dummyuid","dummy_job",110],"value":{"x":40.1242,"y":41.1413,"r":31.5}},
{"id":"chasm_summary","key":["task_definition_dummyuid","dummy_job",111],"value":{"x":40.1242,"y":41.1413,"r":31.5}},
{"id":"chasm_summary","key":["task_definition_dummyuid","dummy_job",112],"value":{"x":40.1242,"y":41.1413,"r":31.5}},
{"id":"chasm_summary","key":["task_definition_dummyuid","dummy_job",113],"value":{"x":40.1242,"y":41.1413,"r":31.5}},
{"id":"chasm_summary","key":["task_definition_dummyuid","dummy_job",114],"value":{"x":40.1242,"y":41.1413,"r":31.5}},
{"id":"chasm_summary","key":["task_definition_dummyuid","dummy_job",115],"value":{"x":40.1242,"y":41.1413,"r":31.5}},
{"id":"chasm_summary","key":["task_definition_dummyuid","dummy_job",116],"value":{"x":40.1242,"y":41.1413,"r":31.5}},
{"id":"chasm_summary","key":["task_definition_dummyuid","dummy_job",117],"value":{"x":40.1242,"y":41.1413,"r":31.5}},
{"id":"chasm_summary","key":["task_definition_dummyuid","dummy_job",118],"value":{"x":40.1242,"y":41.1413,"r":31.5}},
{"id":"chasm_summary","key":["task_definition_dummyuid","dummy_job",119],"value":{"x":40.1242,"y":41.1413,"r":31.5}},
{"id":"chasm_summary","key":["task_definition_dummyuid","dummy_job",120],"value":{"x":40.1242,"y":41.1413,"r":31.5}},
{"id":"chasm_summary","key":["task_definition_dummyuid","dummy_job",121],"value":{"x":40.1242,"y":41.1413,"r":31.5}},
{"id":"chasm_summary","key":["task_definition_dummyuid","dummy_job",122],"value":{"x":40.1242,"y":41.1413,"r":31.5}},
{"id":"chasm_summary","key":["task_definition_dummyuid","dummy_job",123],"value":{"x":40.1242,"y":41.1413,"r":31.5}},
{"id":"chasm_summary","key":["task_definition_dummyuid","dummy_job",124],"value":{"x":40.1242,"y":41.1413,"r":31.5}},
{"id":"chasm_summary","key":["task_definition_dummyuid","dummy_job",125],"value":{"x":40.1242,"y":41.1413,"r":31.5}},
{"id":"chasm_summary","key":["task_definition_dummyuid","dummy_job",126],"value":{"x":40.1242,"y":41.1413,"r":31.5}},
{"id":"chasm_summary","key":["task_definition_dummyuid","dummy_job",127],"value":{"x":40.1242,"y":41.1413,"r":31.5}},
{"id":"chasm_summary","key":["task_definition_dummyuid","dummy_job",128],"value":{"x":40.1242,"y":41.1413,"r":31.5}},
{"id":"chasm_summary","key":["task_definition_dummyuid","dummy_job",129],"value":{"x":40.1242,"y":41.1413,"r":31.5}},
{"id":"chasm_summary","key":["task_definition_dummyuid","dummy_job",130],"value":{"x":40.1242,"y":41.1413,"r":31.5}},
{"id":"chasm_summary","key":["task_definition_dummyuid","dummy_job",131],"value":{"x":40.1242,"y":41.1413,"r":31.5}},
{"id":"chasm_summary","key":["task_definition_dummyuid","dummy_job",132],"value":{"x":40.1242,"y":41.1413,"r":31.5}},
{"id":"chasm_summary","key":["task_definition_dummyuid","dummy_job",133],"value":{"x":40.1242,"y":41.1413,"r":31.5}},
{"id":"chasm_summary","key":["task_definition_dummyuid","dummy_job",134],"value":{"x":40.1242,"y":41.1413,"r":31.5}},
{"id":"chasm_summary","key":["task_definition_dummyuid","dummy_job",135],"value":{"x":40.1242,"y":41.1413,"r":31.5}},
{"id":"chasm_summary","key":["task_definition_dummyuid","dummy_job",136],"value":{"x":40.1242,"y":41.1413,"r":31.5}},
{"id":"chasm_summary","key":["task_definition_dummyuid","dummy_job",137],"value":{"x":40.1242,"y":41.1413,"r":31.5}},
{"id":"chasm_summary","key":["task_definition_dummyuid","dummy_job",138],"value":{"x":40.1242,"y":41.1413,"r":31.5}},
{"id":"chasm_summary","key":["task_definition_dummyuid","dummy_job",139],"value":{"x":40.1242,"y":41.1413,"r":31.5}},
{"id":"chasm_summary","key":["task_definition_dummyuid","dummy_job",140],"value":{"x":40.1242,"y":41.1413,"r":31.5}},
{"id":"chasm_summary","key":["task_definition_dummyuid","dummy_job",141],"value":{"x":40.1242,"y":41.1413,"r":31.5}},
{"id":"chasm_summary","key":["task_definition_dummyuid","dummy_job",142],"value":{"x":40.1242,"y":41.1413,"r":31.5}},
{"id":"chasm_summary","key":["task_definition_dummyuid","dummy_job",143],"value":{"x":40.1242,"y":41.1413,"r":31.5}},
{"id":"chasm_summary","key":["task_definition_dummyuid","dummy_job",144],"value":{"x":40.1242,"y":41.1413,"r":31.5}},
{"id":"chasm_summary","key":["task_definition_dummyuid","dummy_job",145],"value":{"x":40.1242,"y":41.1413,"r":31.5}},
{"id":"chasm_summary","key":["task_definition_dummyuid","dummy_job",146],"value":{"x":40.1242,"y":41.1413,"r":31.5}},
{"id":"chasm_summary","key":["task_definition_dummyuid","dummy_job",147],"value":{"x":40.1242,"y":41.1413,"r":31.5}},
{"id":"chasm_summary","key":["task_definition_dummyuid","dummy_job",148],"value":{"x":40.1242,"y":41.1413,"r":31.5}},
{"id":"chasm_summary","key":["task_definition_dummyuid","dummy_job",149],"value":{"x":40.1242,"y":41.1413,"r":31.5}},
{"id":"chasm_summary","key":["task_definition_dummyuid","dummy_job",150],"value":{"x":40.1242,"y":41.1413,"r":31.5}},
{"id":"chasm_summary","key":["task_definition_dummyuid","dummy_job",151],"value":{"x":40.1242,"y":41.1413,"r":31.5}},
{"id":"chasm_summary","key":["task_definition_dummyuid","dummy_job",152],"value":{"x":40.1242,"y":41.1413,"r":31.5}},
{"id":"chasm_summary","key":["task_definition_dummyuid","dummy_job",153],"value":{"x":40.1242,"y":41.1413,"r":31.5}},
{"id":"chasm_summary","key":["task_definition_dummyuid","dummy_job",154],"value":{"x":40.1242,"y":41.1413,"r":31.5}},
{"id":"chasm_summary","key":["task_definition_dummyuid","dummy_job",155],"value":{"x":40.1242,"y":41.1413,"r":31.5}},
{"id":"chasm_summary","key":["task_definition_dummyuid","dummy_job",156],"value":{"x":40.1242,"y":41.1413,"r":31.5}},
{"id":"chasm_summary","key":["task_definition_dummyuid","dummy_job",157],"value":{"x":40.1242,"y":41.1413,"r":31.5}},
{"id":"chasm_summary","key":["task_definition_dummyuid","dummy_job",158],"value":{"x":40.1242,"y":41.1413,"r":31.5}},
{"id":"chasm_summary","key":["task_definition_dummyuid","dummy_job",159],"value":{"x":40.1242,"y":41.1413,"r":31.5}},
{"id":"chasm_summary","key":["task_definition_dummyuid","dummy_job",160],"value":{"x":40.1242,"y":41.1413,"r":31.5}},
{"id":"chasm_summary","key":["task_definition_dummyuid","dummy_job",161],"value":{"x":40.1242,"y":41.1413,"r":31.5}},
{"id":"chasm_summary","key":["task_definition_dummyuid","dummy_job",162],"value":{"x":40.1242,"y":41.1413,"r":31.5}},
{"id":"chasm_summary","key":["task_definition_dummyuid","dummy_job",163],"value":{"x":40.1242,"y":41.1413,"r":31.5}},
{"id":"chasm_summary","key":["task_definition_dummyuid","dummy_job",164],"value":{"x":40.1242,"y":41.1413,"r":31.5}},
{"id":"chasm_summary","key":["task_definition_dummyuid","dummy_job",165],"value":{"x":40.1242,"y":41.1413,"r":31.5}},
{"id":"chasm_summary","key":["task_definition_dummyuid","dummy_job",166],"value":{"x":40.1242,"y":41.1413,"r":31.5}},
{"id":"chasm_summary","key":["task_definition_dummyuid","dummy_job",167],"value":{"x":40.1242,"y":41.1413,"r":31.5}},
{"id":"chasm_summary","key":["task_definition_dummyuid","dummy_job",168],"value":{"x":40.1242,"y":41.1413,"r":31.5}},
{"id":"chasm_summary","key":["task_definition_dummyuid","dummy_job",169],"value":{"x":40.1242,"y":41.1413,"r":31.5}},
{"id":"chasm_summary","key":["task_definition_dummyuid","dummy_job",170],"value":{"x":40.1242,"y":41.1413,"r":31.5}},
{"id":"chasm_summary","key":["task_definition_dummyuid","dummy_job",171],"value":{"x":40.1242,"y":41.1413,"r":31.5}},
{"id":"chasm_summary","key":["task_definition_dummyuid","dummy_job",172],"value":{"x":40.1242,"y":41.1413,"r":31.5}},
{"id":"chasm_summary","key":["task_definition_dummyuid","dummy_job",173],"value":{"x":40.1242,"y":41.1413,"r":31.5}},
{"id":"chasm_summary","key":["task_definition_dummyuid","dummy_job",174],"value":{"x":40.1242,"y":41.1413,"r":31.5}},
{"id":"chasm_summary","key":["task_definition_dummyuid","dummy_job",175],"value":{"x":40.1242,"y":41.1413,"r":31.5}},
{"id":"chasm_summary","key":["task_definition_dummyuid","dummy_job",176],"value":{"x":40.1242,"y":41.1413,"r":31.5}},
{"id":"chasm_summary","key":["task_definition_dummyuid","dummy_job",177],"value":{"x":40.1242,"y":41.1413,"r":31.5}},
{"id":"chasm_summary","key":["task_definition_dummyuid","dummy_job",178],"value":{"x":40.1242,"y":41.1413,"r":31.5}},
{"id":"chasm_summary","key":["task_definition_dummyuid","dummy_job",179],"value":{"x":40.1242,"y":41.1413,"r":31.5}},
{"id":"chasm_summary","key":["task_definition_dummyuid","dummy_job",180],"value":{"x":40.1242,"y":41.1413,"r":31.5}},
{"id":"chasm_summary","key":["task_definition_dummyuid","dummy_job",181],"value":{"x":40.1242,"y":41.1413,"r":31.5}},
{"id":"chasm_summary","key":["task_definition_dummyuid","dummy_job",182],"value":{"x":40.1242,"y":41.1413,"r":31.5}},
{"id":"chasm_summary","key":["task_definition_dummyuid","dummy_job",183],"value":{"x":40.1242,"y":41.1413,"r":31.5}},
{"id":"chasm_summary","key":["task_definition_dummyuid","dummy_job",184],"value":{"x":40.1242,"y":41.1413,"r":31.5}},
{"id":"chasm_summary","key":["task_definition_dummyuid","dummy_job",185],"value":{"x":40.1242,"y":41.1413,"r":31.5}},
{"id":"chasm_summary","key":["task_definition_dummyuid","dummy_job",186],"value":{"x":40.1242,"y":41.1413,"r":31.5}},
{"id":"chasm_summary","key":["task_definition_dummyuid","dummy_job",187],"value":{"x":40.1242,"y":41.1413,"r":31.5}},
{"id":"chasm_summary","key":["task_definition_dummyuid","dummy_job",188],"value":{"x":40.1242,"y":41.1413,"r":31.5}},
{"id":"chasm_summary","key":["task_definition_dummyuid","dummy_job",189],"value":{"x":40.1242,"y":41.1413,"r":31.5}},
{"id":"chasm_summary","key":["task_definition_dummyuid","dummy_job",190],"value":{"x":40.1242,"y":41.1413,"r":31.5}},
{"id":"chasm_summary","key":["task_definition_dummyuid","dummy_job",191],"value":{"x":40.1242,"y":41.1413,"r":31.5}},
{"id":"chasm_summary","key":["task_definition_dummyuid","dummy_job",192],"value":{"x":40.1242,"y":41.1413,"r":31.5}},
{"id":"chasm_summary","key":["task_definition_dummyuid","dummy_job",193],"value":{"x":40.1242,"y":41.1413,"r":31.5}},
{"id":"chasm_summary","key":["task_definition_dummyuid","dummy_job",194],"value":{"x":40.1242,"y":41.1413,"r":31.5}},
{"id":"chasm_summary","key":["task_definition_dummyuid","dummy_job",195],"value":{"x":40.1242,"y":41.1413,"r":31.5}},
{"id":"chasm_summary","key":["task_definition_dummyuid","dummy_job",196],"value":{"x":40.1242,"y":41.1413,"r":31.5}},
{"id":"chasm_summary","key":["task_definition_dummyuid","dummy_job",197],"value":{"x":40.1242,"y":41.1413,"r":31.5}},
{"id":"chasm_summary","key":["task_definition_dummyuid","dummy_job",198],"value":{"x":40.1242,"y":41.1413,"r":31.5}},
{"id":"chasm_summary","key":["task_definition_dummyuid","dummy_job",199],"value":{"x":40.1242,"y":41.1413,"r":31.5}},
{"id":"chasm_summary","key":["task_definition_dummyuid","dummy_job",200],"value":{"x":40.1242,"y":41.1413,"r":31.5}},
{"id":"chasm_summary","key":["task_definition_dummyuid","dummy_job",201],"value":{"x":40.1242,"y":41.1413,"r":31.5}},
{"id":"chasm_summary","key":["task_definition_dummyuid","dummy_job",202],"value":{"x":40.1242,"y":41.1413,"r":31.5}},
{"id":"chasm_summary","key":["task_definition_dummyuid","dummy_job",203],"value":{"x":40.1242,"y":41.1413,"r":31.5}},
{"id":"chasm_summary","key":["task_definition_dummyuid","dummy_job",204],"value":{"x":40.1242,"y":41.1413,"r":31.5}},
{"id":"chasm_summary","key":["task_definition_dummyuid","dummy_job",205],"value":{"x":40.1242,"y":41.1413,"r":31.5}},
{"id":"chasm_summary","key":["task_definition_dummyuid","dummy_job",206],"value":{"x":40.1242,"y":41.1413,"r":31.5}},
{"id":"chasm_summary","key":["task_definition_dummyuid","dummy_job",207],"value":{"x":40.1242,"y":41.1413,"r":31.5}},
{"id":"chasm_summary","key":["task_definition_dummyuid","dummy_job",208],"value":{"x":40.1242,"y":41.1413,"r":31.5}},
{"id":"chasm_summary","key":["task_definition_dummyuid","dummy_job",209],"value":{"x":40.1242,"y":41.1413,"r":31.5}},
{"id":"chasm_summary","key":["task_definition_dummyuid","dummy_job",210],"value":{"x":40.1242,"y":41.1413,"r":31.5}},
{"id":"chasm_summary","key":["task_definition_dummyuid","dummy_job",211],"value":{"x":40.1242,"y":41.1413,"r":31.5}},
{"id":"chasm_summary","key":["task_definition_dummyuid","dummy_job",212],"value":{"x":40.1242,"y":41.1413,"r":31.5}},
{"id":"chasm_summary","key":["task_definition_dummyuid","dummy_job",213],"value":{"x":40.1242,"y":41.1413,"r":31.5}},
{"id":"chasm_summary","key":["task_definition_dummyuid","dummy_job",214],"value":{"x":40.1242,"y":41.1413,"r":31.5}},
{"id":"chasm_summary","key":["task_definition_dummyuid","dummy_job",215],"value":{"x":40.1242,"y":41.1413,"r":31.5}},
{"id":"chasm_summary","key":["task_definition_dummyuid","dummy_job",216],"value":{"x":40.1242,"y":41.1413,"r":31.5}},
{"id":"chasm_summary","key":["task_definition_dummyuid","dummy_job",217],"value":{"x":40.1242,"y":41.1413,"r":31.5}},
{"id":"chasm_summary","key":["task_definition_dummyuid","dummy_job",218],"value":{"x":40.1242,"y":41.1413,"r":31.5}},
{"id":"chasm_summary","key":["task_definition_dummyuid","dummy_job",219],"value":{"x":40.1242,"y":41.1413,"r":31.5}},
{"id":"chasm_summary","key":["task_definition_dummyuid","dummy_job",220],"value":{"x":40.1242,"y":41.1413,"r":31.5}},
{"id":"chasm_summary","key":["task_definition_dummyuid","dummy_job",221],"value":{"x":40.1242,"y":41.1413,"r":31.5}},
{"id":"chasm_summary","key":["task_definition_dummyuid","dummy_job",222],"value":{"x":40.1242,"y":41.1413,"r":31.5}},
{"id":"chasm_summary","key":["task_definition_dummyuid","dummy_job",223],"value":{"x":40.1242,"y":41.1413,"r":31.5}},
{"id":"chasm_summary","key":["task_definition_dummyuid","dummy_job",224],"value":{"x":40.1242,"y":41.1413,"r":31.5}},
{"id":"chasm_summary","key":["task_definition_dummyuid","dummy_job",225],"value":{"x":40.1242,"y":41.1413,"r":31.5}},
{"id":"chasm_summary","key":["task_definition_dummyuid","dummy_job",226],"value":{"x":40.1242,"y":41.1413,"r":31.5}},
{"id":"chasm_summary","key":["task_definition_dummyuid","dummy_job",227],"value":{"x":40.1242,"y":41.1413,"r":31.5}},
{"id":"chasm_summary","key":["task_definition_dummyuid","dummy_job",228],"value":{"x":40.1242,"y":41.1413,"r":31.5}},
{"id":"chasm_summary","key":["task_definition_dummyuid","dummy_job",229],"value":{"x":40.1242,"y":41.1413,"r":31.5}},
{"id":"chasm_summary","key":["task_definition_dummyuid","dummy_job",230],"value":{"x":40.1242,"y":41.1413,"r":31.5}},
{"id":"chasm_summary","key":["task_definition_dummyuid","dummy_job",231],"value":{"x":40.1242,"y":41.1413,"r":31.5}},
{"id":"chasm_summary","key":["task_definition_dummyuid","dummy_job",232],"value":{"x":40.1242,"y":41.1413,"r":31.5}},
{"id":"chasm_summary","key":["task_definition_dummyuid","dummy_job",233],"value":{"x":40.1242,"y":41.1413,"r":31.5}},
{"id":"chasm_summary","key":["task_definition_dummyuid","dummy_job",234],"value":{"x":40.1242,"y":41.1413,"r":31.5}},
{"id":"chasm_summary","key":["task_definition_dummyuid","dummy_job",235],"value":{"x":40.1242,"y":41.1413,"r":31.5}},
{"id":"chasm_summary","key":["task_definition_dummyuid","dummy_job",236],"value":{"x":40.1242,"y":41.1413,"r":31.5}},
{"id":"chasm_summary","key":["task_definition_dummyuid","dummy_job",237],"value":{"x":40.1242,"y":41.1413,"r":31.5}},
{"id":"chasm_summary","key":["task_definition_dummyuid","dummy_job",238],"value":{"x":40.1242,"y":41.1413,"r":31.5}},
{"id":"chasm_summary","key":["task_definition_dummyuid","dummy_job",239],"value":{"x":40.1242,"y":41.1413,"r":31.5}},
{"id":"chasm_summary","key":["task_definition_dummyuid","dummy_job",240],"value":{"x":40.1242,"y":41.1413,"r":31.5}},
{"id":"chasm_summary","key":["task_definition_dummyuid","dummy_job",241],"value":{"x":40.1242,"y":41.1413,"r":31.5}},
{"id":"chasm_summary","key":["task_definition_dummyuid","dummy_job",242],"value":{"x":40.1242,"y":41.1413,"r":31.5}},
{"id":"chasm_summary","key":["task_definition_dummyuid","dummy_job",243],"value":{"x":40.1242,"y":41.1413,"r":31.5}},
{"id":"chasm_summary","key":["task_definition_dummyuid","dummy_job",244],"value":{"x":40.1242,"y":41.1413,"r":31.5}},
{"id":"chasm_summary","key":["task_definition_dummyuid","dummy_job",245],"value":{"x":40.1242,"y":41.1413,"r":31.5}},
{"id":"chasm_summary","key":["task_definition_dummyuid","dummy_job",246],"value":{"x":40.1242,"y":41.1413,"r":31.5}},
{"id":"chasm_summary","key":["task_definition_dummyuid","dummy_job",247],"value":{"x":40.1242,"y":41.1413,"r":31.5}},
{"id":"chasm_summary","key":["task_definition_dummyuid","dummy_job",248],"value":{"x":40.1242,"y":41.1413,"r":31.5}},
{"id":"chasm_summary","key":["task_definition_dummyuid","dummy_job",249],"value":{"x":40.1242,"y":41.1413,"r":31.5}},
{"id":"chasm_summary","key":["task_definition_dummyuid","dummy_job",250],"value":{"x":40.1242,"y":41.1413,"r":31.5}},
{"id":"chasm_summary","key":["task_definition_dummyuid","dummy_job",251],"value":{"x":40.1242,"y":41.1413,"r":31.5}},
{"id":"chasm_summary","key":["task_definition_dummyuid","dummy_job",252],"value":{"x":40.1242,"y":41.1413,"r":31.5}},
{"id":"chasm_summary","key":["task_definition_dummyuid","dummy_job",253],"value":{"x":40.1242,"y":41.1413,"r":31.5}},
{"id":"chasm_summary","key":["task_definition_dummyuid","dummy_job",254],"value":{"x":40.1242,"y":41.1413,"r":31.5}},
{"id":"chasm_summary","key":["task_definition_dummyuid","dummy_job",255],"value":{"x":40.1242,"y":41.1413,"r":31.5}},
{"id":"chasm_summary","key":["task_definition_dummyuid","dummy_job",256],"value":{"x":40.1242,"y":41.1413,"r":31.5}},
{"id":"chasm_summary","key":["task_definition_dummyuid","dummy_job",257],"value":{"x":40.1242,"y":41.1413,"r":31.5}},
{"id":"chasm_summary","key":["task_definition_dummyuid","dummy_job",258],"value":{"x":40.1242,"y":41.1413,"r":31.5}},
{"id":"chasm_summary","key":["task_definition_dummyuid","dummy_job",259],"value":{"x":40.1242,"y":41.1413,"r":31.5}},
{"id":"chasm_summary","key":["task_definition_dummyuid","dummy_job",260],"value":{"x":40.1242,"y":41.1413,"r":31.5}},
{"id":"chasm_summary","key":["task_definition_dummyuid","dummy_job",261],"value":{"x":40.1242,"y":41.1413,"r":31.5}},
{"id":"chasm_summary","key":["task_definition_dummyuid","dummy_job",262],"value":{"x":40.1242,"y":41.1413,"r":31.5}},
{"id":"chasm_summary","key":["task_definition_dummyuid","dummy_job",263],"value":{"x":40.1242,"y":41.1413,"r":31.5}},
{"id":"chasm_summary","key":["task_definition_dummyuid","dummy_job",264],"value":{"x":40.1242,"y":41.1413,"r":31.5}},
{"id":"chasm_summary","key":["task_definition_dummyuid","dummy_job",265],"value":{"x":40.1242,"y":41.1413,"r":31.5}},
{"id":"chasm_summary","key":["task_definition_dummyuid","dummy_job",266],"value":{"x":40.1242,"y":41.1413,"r":31.5}},
{"id":"chasm_summary","key":["task_definition_dummyuid","dummy_job",267],"value":{"x":40.1242,"y":41.1413,"r":31.5}},
{"id":"chasm_summary","key":["task_definition_dummyuid","dummy_job",268],"value":{"x":40.1242,"y":41.1413,"r":31.5}},
{"id":"chasm_summary","key":["task_definition_dummyuid","dummy_job",269],"value":{"x":40.1242,"y":41.1413,"r":31.5}},
{"id":"chasm_summary","key":["task_definition_dummyuid","dummy_job",270],"value":{"x":40.1242,"y":41.1413,"r":31.5}},
{"id":"chasm_summary","key":["task_definition_dummyuid","dummy_job",271],"value":{"x":40.1242,"y":41.1413,"r":31.5}},
{"id":"chasm_summary","key":["task_definition_dummyuid","dummy_job",272],"value":{"x":40.1242,"y":41.1413,"r":31.5}},
{"id":"chasm_summary","key":["task_definition_dummyuid","dummy_job",273],"value":{"x":40.1242,"y":41.1413,"r":31.5}},
{"id":"chasm_summary","key":["task_definition_dummyuid","dummy_job",274],"value":{"x":40.1242,"y":41.1413,"r":31.5}},
{"id":"chasm_summary","key":["task_definition_dummyuid","dummy_job",275],"value":{"x":40.1242,"y":41.1413,"r":31.5}},
{"id":"chasm_summary","key":["task_definition_dummyuid","dummy_job",276],"value":{"x":40.1242,"y":41.1413,"r":31.5}},
{"id":"chasm_summary","key":["task_definition_dummyuid","dummy_job",277],"value":{"x":40.1242,"y":41.1413,"r":31.5}},
{"id":"chasm_summary","key":["task_definition_dummyuid","dummy_job",278],"value":{"x":40.1242,"y":41.1413,"r":31.5}},
{"id":"chasm_summary","key":["task_definition_dummyuid","dummy_job",279],"value":{"x":40.1242,"y":41.1413,"r":31.5}},
{"id":"chasm_summary","key":["task_definition_dummyuid","dummy_job",280],"value":{"x":40.1242,"y":41.1413,"r":31.5}},
{"id":"chasm_summary","key":["task_definition_dummyuid","dummy_job",281],"value":{"x":40.1242,"y":41.1413,"r":31.5}},
{"id":"chasm_summary","key":["task_definition_dummyuid","dummy_job",282],"value":{"x":40.1242,"y":41.1413,"r":31.5}},
{"id":"chasm_summary","key":["task_definition_dummyuid","dummy_job",283],"value":{"x":40.1242,"y":41.1413,"r":31.5}},
{"id":"chasm_summary","key":["task_definition_dummyuid","dummy_job",284],"value":{"x":40.1242,"y":41.1413,"r":31.5}},
{"id":"chasm_summary","key":["task_definition_dummyuid","dummy_job",285],"value":{"x":40.1242,"y":41.1413,"r":31.5}},
{"id":"chasm_summary","key":["task_definition_dummyuid","dummy_job",286],"value":{"x":40.1242,"y":41.1413,"r":31.5}},
{"id":"chasm_summary","key":["task_definition_dummyuid","dummy_job",287],"value":{"x":40.1242,"y":41.1413,"r":31.5}},
{"id":"chasm_summary","key":["task_definition_dummyuid","dummy_job",288],"value":{"x":40.1242,"y":41.1413,"r":31.5}},
{"id":"chasm_summary","key":["task_definition_dummyuid","dummy_job",289],"value":{"x":40.1242,"y":41.1413,"r":31.5}},
{"id":"chasm_summary","key":["task_definition_dummyuid","dummy_job",290],"value":{"x":40.1242,"y":41.1413,"r":31.5}},
{"id":"chasm_summary","key":["task_definition_dummyuid","dummy_job",291],"value":{"x":40.1242,"y":41.1413,"r":31.5}},
{"id":"chasm_summary","key":["task_definition_dummyuid","dummy_job",292],"value":{"x":40.1242,"y":41.1413,"r":31.5}},
{"id":"chasm_summary","key":["task_definition_dummyuid","dummy_job",293],"value":{"x":40.1242,"y":41.1413,"r":31.5}},
{"id":"chasm_summary","key":["task_definition_dummyuid","dummy_job",294],"value":{"x":40.1242,"y":41.1413,"r":31.5}},
{"id":"chasm_summary","key":["task_definition_dummyuid","dummy_job",295],"value":{"x":40.1242,"y":41.1413,"r":31.5}},
{"id":"chasm_summary","key":["task_definition_dummyuid","dummy_job",296],"value":{"x":40.1242,"y":41.1413,"r":31.5}},
{"id":"chasm_summary","key":["task_definition_dummyuid","dummy_job",297],"value":{"x":40.1242,"y":41.1413,"r":31.5}},
{"id":"chasm_summary","key":["task_definition_dummyuid","dummy_job",298],"value":{"x":40.1242,"y":41.1413,"r":31.5}},
{"id":"chasm_summary","key":["task_definition_dummyuid","dummy_job",299],"value":{"x":40.1242,"y":41.1413,"r":31.5}},
{"id":"chasm_summary","key":["task_definition_dummyuid","dummy_job",300],"value":{"x":40.1242,"y":41.1413,"r":31.5}},
{"id":"chasm_summary","key":["task_definition_dummyuid","dummy_job",301],"value":{"x":40.1242,"y":41.1413,"r":31.5}},
{"id":"chasm_summary","key":["task_definition_dummyuid","dummy_job",302],"value":{"x":40.1242,"y":41.1413,"r":31.5}},
{"id":"chasm_summary","key":["task_definition_dummyuid","dummy_job",303],"value":{"x":40.1242,"y":41.1413,"r":31.5}},
{"id":"chasm_summary","key":["task_definition_dummyuid","dummy_job",304],"value":{"x":40.1242,"y":41.1413,"r":31.5}},
{"id":"chasm_summary","key":["task_definition_dummyuid","dummy_job",305],"value":{"x":40.1242,"y":41.1413,"r":31.5}},
{"id":"chasm_summary","key":["task_definition_dummyuid","dummy_job",306],"value":{"x":40.1242,"y":41.1413,"r":31.5}},
{"id":"chasm_summary","key":["task_definition_dummyuid","dummy_job",307],"value":{"x":40.1242,"y":41.1413,"r":31.5}},
{"id":"chasm_summary","key":["task_definition_dummyuid","dummy_job",308],"value":{"x":40.1242,"y":41.1413,"r":31.5}},
{"id":"chasm_summary","key":["task_definition_dummyuid","dummy_job",309],"value":{"x":40.1242,"y":41.1413,"r":31.5}},
{"id":"chasm_summary","key":["task_definition_dummyuid","dummy_job",310],"value":{"x":40.1242,"y":41.1413,"r":31.5}},
{"id":"chasm_summary","key":["task_definition_dummyuid","dummy_job",311],"value":{"x":40.1242,"y":41.1413,"r":31.5}},
{"id":"chasm_summary","key":["task_definition_dummyuid","dummy_job",312],"value":{"x":40.1242,"y":41.1413,"r":31.5}},
{"id":"chasm_summary","key":["task_definition_dummyuid","dummy_job",313],"value":{"x":40.1242,"y":41.1413,"r":31.5}},
{"id":"chasm_summary","key":["task_definition_dummyuid","dummy_job",314],"value":{"x":40.1242,"y":41.1413,"r":31.5}},
{"id":"chasm_summary","key":["task_definition_dummyuid","dummy_job",315],"value":{"x":40.1242,"y":41.1413,"r":31.5}},
{"id":"chasm_summary","key":["task_definition_dummyuid","dummy_job",316],"value":{"x":40.1242,"y":41.1413,"r":31.5}},
{"id":"chasm_summary","key":["task_definition_dummyuid","dummy_job",317],"value":{"x":40.1242,"y":41.1413,"r":31.5}},
{"id":"chasm_summary","key":["task_definition_dummyuid","dummy_job",318],"value":{"x":40.1242,"y":41.1413,"r":31.5}},
{"id":"chasm_summary","key":["task_definition_dummyuid","dummy_job",319],"value":{"x":40.1242,"y":41.1413,"r":31.5}},
{"id":"chasm_summary","key":["task_definition_dummyuid","dummy_job",320],"value":{"x":40.1242,"y":41.1413,"r":31.5}},
{"id":"chasm_summary","key":["task_definition_dummyuid","dummy_job",321],"value":{"x":40.1242,"y":41.1413,"r":31.5}},
{"id":"chasm_summary","key":["task_definition_dummyuid","dummy_job",322],"value":{"x":40.1242,"y":41.1413,"r":31.5}},
{"id":"chasm_summary","key":["task_definition_dummyuid","dummy_job",323],"value":{"x":40.1242,"y":41.1413,"r":31.5}},
{"id":"chasm_summary","key":["task_definition_dummyuid","dummy_job",324],"value":{"x":40.1242,"y":41.1413,"r":31.5}},
{"id":"chasm_summary","key":["task_definition_dummyuid","dummy_job",325],"value":{"x":40.1242,"y":41.1413,"r":31.5}},
{"id":"chasm_summary","key":["task_definition_dummyuid","dummy_job",326],"value":{"x":40.1242,"y":41.1413,"r":31.5}},
{"id":"chasm_summary","key":["task_definition_dummyuid","dummy_job",327],"value":{"x":40.1242,"y":41.1413,"r":31.5}},
{"id":"chasm_summary","key":["task_definition_dummyuid","dummy_job",328],"value":{"x":40.1242,"y":41.1413,"r":31.5}},
{"id":"chasm_summary","key":["task_definition_dummyuid","dummy_job",329],"value":{"x":40.1242,"y":41.1413,"r":31.5}},
{"id":"chasm_summary","key":["task_definition_dummyuid","dummy_job",330],"value":{"x":40.1242,"y":41.1413,"r":31.5}},
{"id":"chasm_summary","key":["task_definition_dummyuid","dummy_job",331],"value":{"x":40.1242,"y":41.1413,"r":31.5}},
{"id":"chasm_summary","key":["task_definition_dummyuid","dummy_job",332],"value":{"x":40.1242,"y":41.1413,"r":31.5}},
{"id":"chasm_summary","key":["task_definition_dummyuid","dummy_job",333],"value":{"x":40.1242,"y":41.1413,"r":31.5}},
{"id":"chasm_summary","key":["task_definition_dummyuid","dummy_job",334],"value":{"x":40.1242,"y":41.1413,"r":31.5}},
{"id":"chasm_summary","key":["task_definition_dummyuid","dummy_job",335],"value":{"x":40.1242,"y":41.1413,"r":31.5}},
{"id":"chasm_summary","key":["task_definition_dummyuid","dummy_job",336],"value":{"x":40.1242,"y":41.1413,"r":31.5}},
{"id":"chasm_summary","key":["task_definition_dummyuid","dummy_job",337],"value":{"x":40.1242,"y":41.1413,"r":31.5}},
{"id":"chasm_summary","key":["task_definition_dummyuid","dummy_job",338],"value":{"x":40.1242,"y":41.1413,"r":31.5}},
{"id":"chasm_summary","key":["task_definition_dummyuid","dummy_job",339],"value":{"x":40.1242,"y":41.1413,"r":31.5}},
{"id":"chasm_summary","key":["task_definition_dummyuid","dummy_job",340],"value":{"x":40.1242,"y":41.1413,"r":31.5}},
{"id":"chasm_summary","key":["task_definition_dummyuid","dummy_job",341],"value":{"x":40.1242,"y":41.1413,"r":31.5}},
{"id":"chasm_summary","key":["task_definition_dummyuid","dummy_job",342],"value":{"x":40.1242,"y":41.1413,"r":31.5}},
{"id":"chasm_summary","key":["task_definition_dummyuid","dummy_job",343],"value":{"x":40.1242,"y":41.1413,"r":31.5}},
{"id":"chasm_summary","key":["task_definition_dummyuid","dummy_job",344],"value":{"x":40.1242,"y":41.1413,"r":31.5}},
{"id":"chasm_summary","key":["task_definition_dummyuid","dummy_job",345],"value":{"x":40.1242,"y":41.1413,"r":31.5}},
{"id":"chasm_summary","key":["task_definition_dummyuid","dummy_job",346],"value":{"x":40.1242,"y":41.1413,"r":31.5}},
{"id":"chasm_summary","key":["task_definition_dummyuid","dummy_job",347],"value":{"x":40.1242,"y":41.1413,"r":31.5}},
{"id":"chasm_summary","key":["task_definition_dummyuid","dummy_job",348],"value":{"x":40.1242,"y":41.1413,"r":31.5}},
{"id":"chasm_summary","key":["task_definition_dummyuid","dummy_job",349],"value":{"x":40.1242,"y":41.1413,"r":31.5}},
{"id":"chasm_summary","key":["task_definition_dummyuid","dummy_job",350],"value":{"x":40.1242,"y":41.1413,"r":31.5}},
{"id":"chasm_summary","key":["task_definition_dummyuid","dummy_job",351],"value":{"x":40.1242,"y":41.1413,"r":31.5}},
{"id":"chasm_summary","key":["task_definition_dummyuid","dummy_job",352],"value":{"x":40.1242,"y":41.1413,"r":31.5}},
{"id":"chasm_summary","key":["task_definition_dummyuid","dummy_job",353],"value":{"x":40.1242,"y":41.1413,"r":31.5}},
{"id":"chasm_summary","key":["task_definition_dummyuid","dummy_job",354],"value":{"x":40.1242,"y":41.1413,"r":31.5}},
{"id":"chasm_summary","key":["task_definition_dummyuid","dummy_job",355],"value":{"x":40.1242,"y":41.1413,"r":31.5}},
{"id":"chasm_summary","key":["task_definition_dummyuid","dummy_job",356],"value":{"x":40.1242,"y":41.1413,"r":31.5}},
{"id":"chasm_summary","key":["task_definition_dummyuid","dummy_job",357],"value":{"x":40.1242,"y":41.1413,"r":31.5}},
{"id":"chasm_summary","key":["task_definition_dummyuid","dummy_job",358],"value":{"x":40.1242,"y":41.1413,"r":31.5}},
{"id":"chasm_summary","key":["task_definition_dummyuid","dummy_job",359],"value":{"x":40.1242,"y":41.1413,"r":31.5}},
{"id":"chasm_summary","key":["task_definition_dummyuid","dummy_job",360],"value":{"x":40.1242,"y":41.1413,"r":31.5}}
]}