{
   "_id": "state_done",
   "job_id": "job1",
   "task_id": "task1",
   "timestamp": 1302172818.428877,
   "state": "done",
   "state_history": {
       "splitting": {
           "timestamp": 1302172714,
           "modified_by": "foo"
       },
       "submitted": {
           "timestamp": 1302172724,
           "modified_by": "foo"
       },
       "done": {
           "timestamp": 1302172818.428877,
           "modified_by": "foo"
       },
       "ready_to_submit": {
           "timestamp": 1302172714,
           "modified_by": "foo"
       }
   }
}