{
    "function_under_test": "docs_by_type",
    "function_type": "view",
    "design_doc": "gui",
    "test_data": ["input_files/boundary_conditions_deterministic.json",
        "input_files/boundary_conditions_stochastic.json",
        "input_files/deterministic_task_definition.json",
        "input_files/engineering_cost.json",
        "input_files/geometry.json",
        "input_files/geometry_questa_soil_approximated.json",
        "input_files/job_definition.json",
        "input_files/reinforcements_both.json",
        "input_files/road_network.json",
        "input_files/soils_deterministic.json",
        "input_files/soils_stochastic.json",
        "input_files/stability_bishop.json",
        "input_files/vegetation_deterministic_canopy.json",
        "input_files/meta.json",
        "raw_input_files/engineering_cost_bad_failed.json"
    ],
    "tests": {
        "test_success": {
            "description": "Test view produces correct count of documents for each type",
            "code": 200,
            "content_type": "text/plain;charset=utf-8",
            "body": "docs_by_type/success.json",
            "options": {
                "group_level": 1
            }
        },
        "test_success_noreduce": {
            "description": "Test view produces correct documents with name for each type",
            "code": 200,
            "content_type": "text/plain;charset=utf-8",
            "body": "docs_by_type/success_noreduce.json",
            "options": {
                "reduce": false
            }
        }
    }
}