{
    "function_under_test": "soils_by_number",
    "function_type": "view",
    "design_doc": "gui",
    "test_data": ["input_files/soils_deterministic.json",
        "input_files/soils_stochastic.json"
    ],
    "tests": {
        "test_success": {
            "description": "Test view produces correct count of documents for each type",
            "code": 200,
            "content_type": "text/plain;charset=utf-8",
            "body": "soils_by_number/success.json",
            "options": {
                "reduce": false
            }
        }
    }
}