{
    "_id": "questa_dummy_job_input_file_missing",
    "type": "job",
    "task_id": "dummytask",
    "requestor": "Joe Bloggs",
    "group": "Geography",
    "executable": {
        "application": "questa_dummy",
        "version": "0.1"
    },
    "simulation_parameters": {
        "rainfall": [],
        "deterministic": [],
        "stochastic": {}
    },
    "input_files": {
        "geometry": "this_file_does_not_exist",
        "soils": "soils_deterministic",
        "stability": "stability_bishop",
        "boundary_conditions": "boundary_conditions_deterministic",
        "reinforcements": "reinforcements_both",
        "vegetation": "vegetation_deterministic_evapotranspiration_canopy",
        "stochastic_parameters": "stochastic_parameters",
        "initial_slope": "geometry_questa_soil_approximated",
        "engineering_cost": "engineering_cost",
        "road_network": "road_network"
    },
    "output_variables": {
        "factor_of_safety": true,
        "pressure_head": true,
        "soil_moisture_content": false,
        "total_soil_moisture": false,
        "vegetation_interception": false
    },
    "duration": {
        "unit": "h",
        "value": 360
    },
    "time_step": {
        "unit": "s",
        "value": 60
    },
    "report_filename": "output_summary",
    "realistic_rainfall": false
}