{
    "_id": "dummy_job",
    "name": "0",
    "type": "job",
    "task_id": "task_definition_dummyuid",
    "requestor": "Joe Bloggs",
    "group": "Geography",
    "task_name": "Joe's task",
    "executable": {
        "application": "chasm",
        "version": "dummy"
    },
    "input_files": {
        "geometry": "geometry",
        "soils": "soils_deterministic",
        "stability": "stability_bishop",
        "boundary_conditions": "boundary_conditions_deterministic",
        "reinforcements": "reinforcements_both",
        "vegetation": "vegetation_deterministic_evapotranspiration_canopy",
        "stochastic_parameters": "stochastic_parameters"
    },
    "output_files": {
        "factor_of_safety": true,
        "pressure_head": false,
        "soil_moisture_content": false,
        "total_soil_moisture": false,
        "vegetation_interception": false
    },
    "output_variables": {
        "factor_of_safety": true,
        "pressure_head": true,
        "soil_moisture_content": false,
        "total_soil_moisture": false,
        "vegetation_interception": false
    },
    "duration": {
        "unit": "h",
        "value": 360
    },
    "time_step": {
        "unit": "s",
        "value": 60
    }
}