{
    "_id": "slope_loading_id",
    "name": "my slope loading doc",
    "type": "slope_loading",
    "slope_loading": [{
            "coords": {
                "x": {
                    "unit": "m",
                    "value": 4.5
                },
                "y": {
                    "unit": "m",
                    "value": 10.5
                }
            },
            "depth": {
                "unit": "m",
                "value": 2.5
            },
            "total_load": {
                "unit": "kN/m2",
                "value": 0.25
            }
        },
        {
            "coords": {
                "x": {
                    "unit": "m",
                    "value": 8.5
                },
                "y": {
                    "unit": "m",
                    "value": 5.5
                }
            },
            "depth": {
                "unit": "m",
                "value": 2.5
            },
            "total_load": {
                "unit": "kN/m2",
                "value": 0.25
            }
        },
        {
            "coords": {
                "start": {
                    "x": {
                        "unit": "m",
                        "value": 12.5
                    },
                    "y": {
                        "unit": "m",
                        "value": 2.5
                    }
                },
                "end": {
                    "x": {
                        "unit": "m",
                        "value": 14.5
                    },
                    "y": {
                        "unit": "m",
                        "value": 2.5
                    }
                }
            },
            "depth": {
                "unit": "m",
                "value": 0
            },
            "total_load": {
                "unit": "kN/m2",
                "value": 0.5
            }
        }
    ]
}