{
    "_id": "task_definition_dummyuid4",
    "type": "task",
    "parent_id": "example_slope_metadata",
    "name": "my task definition 4",
    "requestor": "Joe Bloggs",
    "group": "Geography",
    "timestamp": 1299492281.0,
    "state": "in_progress",
    "random_seed": 1234,
    "executable": {
        "application": "chasm",
        "version": "4.3.2"
    },
    "input_files": {
        "geometry": "geometry",
        "soils": "soils_deterministic",
        "stability": "stability_bishop",
        "boundary_conditions": "boundary_conditions_deterministic",
        "reinforcements": "reinforcements_both",
        "vegetation": "vegetation_deterministic_evapotranspiration_canopy",
        "stochastic_parameters": "stochastic_parameters"
    },
    "output_files": {
        "factor_of_safety": true,
        "pressure_head": false,
        "soil_moisture_content": false,
        "total_soil_moisture": false,
        "vegetation_interception": false
    },
    "output_variables": {
        "factor_of_safety": true,
        "pressure_head": true,
        "soil_moisture_content": false,
        "total_soil_moisture": false,
        "vegetation_interception": false
    },
    "duration": {
        "unit": "h",
        "value": 360
    },
    "time_step": {
        "unit": "s",
        "value": 60
    },
    "simulation_parameters": {
        "rainfall": [],
        "investment": [],
        "stochastic": {
            "number_of_jobs": 10,
            "fSatcon": {
                "mean": 1,
                "sd": 1
            },
            "fSatmois": {
                "mean": 1,
                "sd": 1
            },
            "fSatbulk": {
                "mean": 1,
                "sd": 1
            },
            "fUnsatbulk": {
                "mean": 1,
                "sd": 1
            },
            "fC": {
                "mean": 1,
                "sd": 1
            },
            "fPhi": {
                "mean": 1,
                "sd": 1
            }
        }
    }
}