{
    "_id": "vegetation_deterministic_thatch",
    "parent_id": "geometry_questa_soil_approximated",
    "name": "my vegetation deterministic thatch",
    "type": "vegetation",
    "uniform_root_dist": false,
    "root_decay": 0,
    "surcharge": {
        "unit": "kNm-2",
        "value": 3
    },
    "sink_terms": {
        "lh1": {
            "unit": "m",
            "value": -0.1
        },
        "lh2": {
            "unit": "m",
            "value": -0.35
        },
        "lh3": {
            "unit": "m",
            "value": -5.0
        },
        "lh4": {
            "unit": "m",
            "value": -14.0
        }
    },
    "vegetation": {
        "leaf_area_index": {
            "unit": "m2m-2",
            "value": [13.1, 13.1, 13.1, 13.1, 13.1, 13.1, 13.1, 13.1, 13.1, 13.1, 13.1, 13.1, 13.1, 13.1, 13.1, 13.1, 13.1, 13.1, 13.1, 13.1, 13.1, 13.1, 13.1, 13.1, 13.1, 13.1, 13.1, 13.1, 13.1]
        },
        "canopy_cover": [0.361, 0.361, 0.361, 0.361, 0.361, 0.361, 0.361, 0.361, 0.361, 0.361, 0.361, 0.361, 0.361, 0.361, 0.361, 0.361, 0.361, 0.361, 0.361, 0.361, 0.361, 0.361, 0.361, 0.361, 0.361, 0.361, 0.361, 0.361, 0.361],
        "rooting_depth": [4, 4, 4, 4, 4, 4, 4, 4, 4, 4, 4, 4, 4, 4, 4, 4, 4, 4, 4, 4, 4, 4, 4, 4, 4, 4, 4, 4, 4],
        "max_transpiration": {
            "unit": "ms-1",
            "value": [3e-7, 3e-7, 3e-7, 3e-7, 3e-7, 3e-7, 3e-7, 3e-7, 3e-7, 3e-7, 3e-7, 3e-7, 3e-7, 3e-7, 3e-7, 3e-7, 3e-7, 3e-7, 3e-7, 3e-7, 3e-7, 3e-7, 3e-7, 3e-7, 3e-7, 3e-7, 3e-7, 3e-7, 3e-7]
        },
        "root_tensile_strength": {
            "unit": "kNm-2",
            "value": [18, 18, 18, 18, 18, 18, 18, 18, 18, 18, 18, 18, 18, 18, 18, 18, 18, 18, 18, 18, 18, 18, 18, 18, 18, 18, 18, 18, 18]
        },
        "root_area_ration": {
            "unit": "m2m-2",
            "value": [0.3, 0.3, 0.3, 0.3, 0.3, 0.3, 0.3, 0.3, 0.3, 0.3, 0.3, 0.3, 0.3, 0.3, 0.3, 0.3, 0.3, 0.3, 0.3, 0.3, 0.3, 0.3, 0.3, 0.3, 0.3, 0.3, 0.3, 0.3, 0.3]
        },
        "vegetation_type": [2, 2, 2, 2, 2, 2, 2, 2, 2, 2, 2, 2, 2, 2, 2, 2, 2, 2, 2, 2, 2, 2, 2, 2, 2, 2, 2, 2, 2]
    }
}