{
    "_id": "vegetation_stochastic_canopy",
    "parent_id": "geometry_questa_soil_known",
    "name": "my vegetation stochastic canopy",
    "type": "vegetation",
    "uniform_root_dist": false,
    "root_decay": 0,
    "interception": {
        "max_leaf_storage": {
            "unit": "mm",
            "value": 0
        },
        "wet_canopy_evaporation": {
            "unit": "ms-1",
            "value": 0
        },
        "leaf_drip_rate": 0.5,
        "stem_portion": 0.5,
        "max_trunk_storage": {
            "unit": "mm",
            "value": 0
        }
    },
    "surcharge": {
        "unit": "kNm-2",
        "mean": 3,
        "standard_deviation": 1
    },
    "sink_terms": {
        "lh1": {
            "unit": "m",
            "value": -0.1
        },
        "lh2": {
            "unit": "m",
            "value": -0.35
        },
        "lh3": {
            "unit": "m",
            "value": -5.0
        },
        "lh4": {
            "unit": "m",
            "value": -14.0
        }
    },
    "vegetation": {
        "leaf_area_index": {
            "unit": "m2m-2",
            "mean": [13.1, 13.1, 13.1, 13.1, 13.1, 13.1, 13.1, 13.1, 13.1, 13.1, 13.1, 13.1, 13.1, 13.1, 13.1, 13.1, 13.1, 13.1, 13.1, 13.1, 13.1, 13.1, 13.1, 13.1, 13.1, 13.1, 13.1, 13.1, 13.1],
            "standard_deviation": [0.1, 0.1, 0.1, 0.1, 0.1, 0.1, 0.1, 0.1, 0.1, 0.1, 0.1, 0.1, 0.1, 0.1, 0.1, 0.1, 0.1, 0.1, 0.1, 0.1, 0.1, 0.1, 0.1, 0.1, 0.1, 0.1, 0.1, 0.1, 0.1]
        },
        "canopy_cover": [0.361, 0.361, 0.361, 0.361, 0.361, 0.361, 0.361, 0.361, 0.361, 0.361, 0.361, 0.361, 0.361, 0.361, 0.361, 0.361, 0.361, 0.361, 0.361, 0.361, 0.361, 0.361, 0.361, 0.361, 0.361, 0.361, 0.361, 0.361, 0.361],
        "rooting_depth": [4, 4, 4, 4, 4, 4, 4, 4, 4, 4, 4, 4, 4, 4, 4, 4, 4, 4, 4, 4, 4, 4, 4, 4, 4, 4, 4, 4, 4],
        "max_transpiration": {
            "unit": "ms-1",
            "mean": [3e-7, 3e-7, 3e-7, 3e-7, 3e-7, 3e-7, 3e-7, 3e-7, 3e-7, 3e-7, 3e-7, 3e-7, 3e-7, 3e-7, 3e-7, 3e-7, 3e-7, 3e-7, 3e-7, 3e-7, 3e-7, 3e-7, 3e-7, 3e-7, 3e-7, 3e-7, 3e-7, 3e-7, 3e-7],
            "standard_deviation": [3e-8, 3e-8, 3e-8, 3e-8, 3e-8, 3e-8, 3e-8, 3e-8, 3e-8, 3e-8, 3e-8, 3e-8, 3e-8, 3e-8, 3e-8, 3e-8, 3e-8, 3e-8, 3e-8, 3e-8, 3e-8, 3e-8, 3e-8, 3e-8, 3e-8, 3e-8, 3e-8, 3e-8, 3e-8]
        },
        "root_tensile_strength": {
            "unit": "kNm-2",
            "mean": [18, 18, 18, 18, 18, 18, 18, 18, 18, 18, 18, 18, 18, 18, 18, 18, 18, 18, 18, 18, 18, 18, 18, 18, 18, 18, 18, 18, 18],
            "standard_deviation": [0.1, 0.1, 0.1, 0.1, 0.1, 0.1, 0.1, 0.1, 0.1, 0.1, 0.1, 0.1, 0.1, 0.1, 0.1, 0.1, 0.1, 0.1, 0.1, 0.1, 0.1, 0.1, 0.1, 0.1, 0.1, 0.1, 0.1, 0.1, 0.1]
        },
        "root_area_ration": {
            "unit": "m2m-2",
            "mean": [0.3, 0.3, 0.3, 0.3, 0.3, 0.3, 0.3, 0.3, 0.3, 0.3, 0.3, 0.3, 0.3, 0.3, 0.3, 0.3, 0.3, 0.3, 0.3, 0.3, 0.3, 0.3, 0.3, 0.3, 0.3, 0.3, 0.3, 0.3, 0.3],
            "standard_deviation": [0.1, 0.1, 0.1, 0.1, 0.1, 0.1, 0.1, 0.1, 0.1, 0.1, 0.1, 0.1, 0.1, 0.1, 0.1, 0.1, 0.1, 0.1, 0.1, 0.1, 0.1, 0.1, 0.1, 0.1, 0.1, 0.1, 0.1, 0.1, 0.1]
        },
        "vegetation_type": [2, 2, 2, 2, 2, 2, 2, 2, 2, 2, 2, 2, 2, 2, 2, 2, 2, 2, 2, 2, 2, 2, 2, 2, 2, 2, 2, 2, 2]
    }
}