{
    "slopes": [
        {
            "investment": {
                "unit": "EC$",
                "value": 0.0
            },
            "definition": {
                "profile_height": {
                    "unit": "m",
                    "value": 29.7241
                },
                "profile_length": {
                    "unit": "m",
                    "value": 48.3363
                },
                "mesh_height": {
                    "unit": "m",
                    "value": 41.0
                },
                "mesh_length": {
                    "unit": "m",
                    "value": 59.0
                },
                "slope": {
                    "x": [0.0, 5.9, 17.3907, 19.9297, 43.6297, 54.2363, 59.0699],
                    "m": [-0.8391, -0.8391, -3.73205, 0.0, -1.0, 0.0],
                    "c": [41.0, 41.0, 91.3103, 16.9318, 60.5614, 6.32516]
                },
                "water": {
                    "m": [-0.822151, -0.8391, -1.80217, 0.0, -1.0, 0.0],
                    "c": [31.0, 31.1, 47.8484, 11.9318, 55.5614, 1.32516]
                },
                "soils": [ 
                    {
                        "m": [-1.09131, -1.09131, -1.09131, -1.09131, -1.09131, -1.09131],
                        "c": [37.1812, 37.1812, 37.1812, 37.1812, 37.1812, 37.1812]
                    },
                    {
                        "m": [-1.09131, -1.09131, -1.09131, -1.09131, -1.09131, -1.09131],
                        "c": [28.6812, 28.6812, 28.6812, 28.6812, 28.6812, 28.6812]
                    }
                ],
                "slope_area": {
                    "unit": "m2",
                    "value": 1196.35
                }
            },
            "failure": {
                "number_of_design_storms": 1,
                "failure_time": {
                    "unit": "h",
                    "value": 121
                },
                "factor_of_safety": 0.73449,
                "slip_circle": {
                    "centre": {
                        "x": 40.1242,
                        "y": 41.1413
                    },
                    "crest": {
                        "x": 9.74159,
                        "y": 32.8258
                    },
                    "toe": {
                        "x": 19.9178,
                        "y": 16.9762
                    },
                    "radius": {
                        "unit": "m",
                        "value": 31.5
                    }
                },
                "intersection": {
                    "x": [9.74159, 19.9178, 19.9711, 49.4943],
                    "y": [32.8258, 16.9762, 16.9318, 11.0672]
                },
                "failure_type": 2,
                "landslide_definition": {
                    "finley_approximation": {
                        "landslide_height": {
                            "unit": "m",
                            "value": 15.8941
                        },
                        "landslide_depth": {
                            "unit": "m",
                            "value": 1.44074
                        },
                        "landslide_slope_angle": {
                            "unit": "deg",
                            "value": 57.3401
                        },
                        "cutslope_toe_to_runout_toe": {
                            "unit": "m",
                            "value": 6.58131
                        },
                        "runout_depth_at_cutslope_toe": {
                            "unit": "m",
                            "value": 2.53283
                        }
                    },
                    "weighted_angle_approximation": {
                        "landslide_height": {
                            "unit": "m",
                            "value": 18.2791
                        },
                        "landslide_depth": {
                            "unit": "m",
                            "value": 2.0844
                        },
                        "landslide_slope_angle": {
                            "unit": "deg",
                            "value": 60.8663
                        },
                        "cutslope_toe_to_runout_toe": {
                            "unit": "m",
                            "value": 7.80559
                        },
                        "runout_depth_at_cutslope_toe": {
                            "unit": "m",
                            "value": 3.10825
                        }
                    }
                },
                "cut_angles": {
                    "upper": {
                        "unit": "deg",
                        "value": 48.7223
                    },
                    "lower": {
                        "unit": "deg",
                        "value": 57.2977
                    }
                },
                "failed_area": {
                    "unit": "m2",
                    "value": 41.6262
                },
                "changed_area": {
                    "unit": "m2",
                    "value": 51.743
                },
                "failed_volume": {
                    "unit": "m3",
                    "value": 416.262
                },
                "cut_volume": {
                    "unit": "m3",
                    "value": 101.169
                },
                "clear_time": {
                    "unit": "h",
                    "value": 8.32523
                },
                "clear_cost": {
                    "unit": "EC$",
                    "value": 4279.17
                },
                "cut_time": {
                    "unit": "h",
                    "value": 2.83272
                },
                "cut_cost": {
                    "unit": "EC$",
                    "value": 2719.41
                },
                "total_time": {
                    "unit": "h",
                    "value": 11.158
                },
                "total_cost": {
                    "unit": "EC$",
                    "value": 6998.58
                }
            }
        },
        {
            "investment": {
                "unit": "EC$",
                "value": 0.0
            },
            "definition": {    
                "profile_height": {
                    "unit": "m",
                    "value": 29.7241
                },
                "profile_length": {
                    "unit": "m",
                    "value": 48.3363
                },
                "mesh_height": {
                    "unit": "m",
                    "value": 41.0
                },
                "mesh_length": {
                    "unit": "m",
                    "value": 59.0
                },
                "slope": {
                    "x": [0.0, 5.9, 6.02971, 13.6173, 19.9297, 43.6297, 54.2363, 59.0699],
                    "m": [-0.8391, -0.8391, -1.55752, -1.13917, 0.0, -1.0, 0.0],
                    "c": [41.0, 41.0, 45.3319, 39.6351, 16.9318, 60.5614, 6.32516]
                },
                "water": {
                    "m": [-0.822151, -0.8391, -1.80217, 0.0, -1.0, 0.0, 4.62428e-44],
                    "c": [31.0, 31.1, 47.8484, 11.9318, 55.5614, 1.32516, 6.86636e-44]
                },
                "soils": [ 
                    {
                        "m": [-1.09131, -1.09131, -1.09131, -1.09131, -1.09131, -1.09131, -1.09131],
                        "c": [37.1812, 37.1812, 37.1812, 37.1812, 37.1812, 37.1812, 37.1812]
                    },
                    {
                        "m": [-1.09131, -1.09131, -1.09131, -1.09131, -1.09131, -1.09131, -1.09131],
                        "c": [28.6812, 28.6812, 28.6812, 28.6812, 28.6812, 28.6812, 28.6812]
                    }
                ],
                "slope_area": {
                    "unit": "m2",
                    "value": 1144.6
                }
            }
        }
    ],
    "costs": {
        "daily_landslide_probability": [0.0],
        "cost": {
            "unit": "EC$",
            "value": [6998.58]
        }
    },
    "net_expected_present_value": 6998.58
}