{
    "function_under_test": "fos",
    "function_type": "view",
    "design_doc": "mining",
    "test_data": ["input_files/geometry.json",
        "input_files/geometry_questa_soil_approximated.json",
        "output_files/results_questa.json",
        "output_files/results_chasm.json",
        "output_files/results_chasm_error_2.json"
    ],
    "tests": {
        "test_success": {
            "description": "Test view produces correct count of documents for each type",
            "code": 200,
            "content_type": "text/plain;charset=utf-8",
            "body": "fos/success.json",
            "options": {
                "group_level": 2
            },
            "almost_equal": true,
            "places": 6
        },
        "test_success_noreduce": {
            "description": "Test view produces correct documents for each type",
            "code": 200,
            "content_type": "text/plain;charset=utf-8",
            "body": "fos/success_noreduce.json",
            "options": {
                "reduce": false
            }
        }
    }
}